4000,1,BR_1,AGUAS DA PRATA,NULL,NULL,NULL,-21.92,-46.72,MM,5,5,NULL,NULL,NULL,NULL,NULL,NULL,BR,NULL,SAO PAULO,NULL,NULL,NULL,NULL,NULL,NULL
4000,2,BR_2,ALFENAS,NULL,NULL,NULL,-21.43,-45.95,MM,4,4,NULL,NULL,NULL,NULL,NULL,NULL,BR,NULL,MINAS GERAIS,NULL,NULL,NULL,NULL,NULL,NULL
4000,3,BR_3,AMERICANA,NULL,NULL,NULL,-22.75,-47.32,MM,5,5,NULL,NULL,NULL,NULL,NULL,NULL,BR,NULL,SAO PAULO,NULL,NULL,NULL,NULL,NULL,NULL
4000,4,BR_4,AMERICO BRASILIENSE,NULL,NULL,NULL,-21.73,-48.11,MM,5,5,NULL,NULL,NULL,NULL,NULL,NULL,BR,NULL,SAO PAULO,NULL,NULL,NULL,NULL,NULL,NULL
4000,5,BR_5,AMPARO,NULL,NULL,NULL,-22.69,-46.77,MM,5,5,NULL,NULL,NULL,NULL,NULL,NULL,BR,NULL,SAO PAULO,NULL,NULL,NULL,NULL,NULL,NULL
4000,6,BR_6,ARARAS,NULL,NULL,NULL,-22.36,-47.38,MM,5,5,NULL,NULL,NULL,NULL,NULL,NULL,BR,NULL,SAO PAULO,NULL,NULL,NULL,NULL,NULL,NULL
4000,7,BR_7,AREIAS,NULL,NULL,NULL,-22.59,-44.7,MM,3,3,NULL,NULL,NULL,NULL,NULL,NULL,BR,NULL,SAO PAULO,NULL,NULL,NULL,NULL,NULL,NULL
4000,8,BR_8,ATIBAIA,NULL,NULL,NULL,-23.11,-46.56,MM,4,4,NULL,NULL,NULL,NULL,NULL,NULL,BR,NULL,SAO PAULO,NULL,NULL,NULL,NULL,NULL,NULL
4000,9,BR_9,BAEPENDI,NULL,NULL,NULL,-21.96,-44.87,MM,3,3,NULL,NULL,NULL,NULL,NULL,NULL,BR,NULL,MINAS GERAIS,NULL,NULL,NULL,NULL,NULL,NULL
4000,10,BR_10,BARBACENA,NULL,NULL,NULL,-21.23,-43.76,MM,3,3,NULL,NULL,NULL,NULL,NULL,NULL,BR,NULL,MINAS GERAIS,NULL,NULL,NULL,NULL,NULL,NULL
4000,11,BR_11,BARRETOS,NULL,NULL,NULL,-20.55,-48.47,MM,2,2,NULL,NULL,NULL,NULL,NULL,NULL,BR,NULL,SAO PAULO,NULL,NULL,NULL,NULL,NULL,NULL
4000,12,BR_12,BATATAIS,NULL,NULL,NULL,-20.96,-47.61,MM,3,3,NULL,NULL,NULL,NULL,NULL,NULL,BR,NULL,SAO PAULO,NULL,NULL,NULL,NULL,NULL,NULL
4000,13,BR_13,BAURU,NULL,NULL,NULL,-22.33,-49.08,MM,3,3,NULL,NULL,NULL,NULL,NULL,NULL,BR,NULL,SAO PAULO,NULL,NULL,NULL,NULL,NULL,NULL
4000,14,BR_14,BOTUCATU,NULL,NULL,NULL,-22.88,-48.45,MM,3,3,NULL,NULL,NULL,NULL,NULL,NULL,BR,NULL,SAO PAULO,NULL,NULL,NULL,NULL,NULL,NULL
4000,15,BR_15,BRAGANCA,NULL,NULL,NULL,-22.95,-46.55,MM,4,4,NULL,NULL,NULL,NULL,NULL,NULL,BR,NULL,SAO PAULO,NULL,NULL,NULL,NULL,NULL,NULL
4000,16,BR_16,BROTAS,NULL,NULL,NULL,-22.28,-48.12,MM,4,4,NULL,NULL,NULL,NULL,NULL,NULL,BR,NULL,SAO PAULO,NULL,NULL,NULL,NULL,NULL,NULL
4000,17,BR_17,CABO VERDE,NULL,NULL,NULL,-21.47,-46.4,MM,5,5,NULL,NULL,NULL,NULL,NULL,NULL,BR,NULL,MINAS GERAIS,NULL,NULL,NULL,NULL,NULL,NULL
4000,18,BR_18,CABREUVA,NULL,NULL,NULL,-23.3,-47.13,MM,4,4,NULL,NULL,NULL,NULL,NULL,NULL,BR,NULL,SAO PAULO,NULL,NULL,NULL,NULL,NULL,NULL
4000,19,BR_19,CACAPAVA,NULL,NULL,NULL,-23.1,-45.71,MM,3,3,NULL,NULL,NULL,NULL,NULL,NULL,BR,NULL,SAO PAULO,NULL,NULL,NULL,NULL,NULL,NULL
4000,20,BR_20,CACHOEIRA,NULL,NULL,NULL,-22.65,-45.01,MM,3,3,NULL,NULL,NULL,NULL,NULL,NULL,BR,NULL,SAO PAULO,NULL,NULL,NULL,NULL,NULL,NULL
4000,21,BR_21,CACONDE,NULL,NULL,NULL,-21.53,-46.65,MM,4,4,NULL,NULL,NULL,NULL,NULL,NULL,BR,NULL,SAO PAULO,NULL,NULL,NULL,NULL,NULL,NULL
4000,22,BR_22,CAJURU,NULL,NULL,NULL,-21.28,-47.31,MM,4,4,NULL,NULL,NULL,NULL,NULL,NULL,BR,NULL,SAO PAULO,NULL,NULL,NULL,NULL,NULL,NULL
4000,23,BR_23,CAMBUQUIRA,NULL,NULL,NULL,-21.86,-45.29,MM,3,3,NULL,NULL,NULL,NULL,NULL,NULL,BR,NULL,MINAS GERAIS,NULL,NULL,NULL,NULL,NULL,NULL
4000,24,BR_24,CAMPINAS,NULL,NULL,NULL,-22.89,-47.08,MM,5,5,NULL,NULL,NULL,NULL,NULL,NULL,BR,NULL,SAO PAULO,NULL,NULL,NULL,NULL,NULL,NULL
4000,25,BR_25,CAMPO LIMPO,NULL,NULL,NULL,-23.21,-46.78,MM,3,3,NULL,NULL,NULL,NULL,NULL,NULL,BR,NULL,SAO PAULO,NULL,NULL,NULL,NULL,NULL,NULL
4000,26,BR_26,CANDIDO MOTA,NULL,NULL,NULL,-22.75,-50.39,MM,-1,-1,NULL,NULL,NULL,NULL,NULL,NULL,BR,NULL, SAO PAULO,NULL,NULL,NULL,NULL,NULL,NULL
4000,27,BR_27,CAPAO BONITO,NULL,NULL,NULL,-23.99,-48.34,MM,4,4,NULL,NULL,NULL,NULL,NULL,NULL,BR,NULL,SAO PAULO,NULL,NULL,NULL,NULL,NULL,NULL
4000,28,BR_28,CASA BRANCA,NULL,NULL,NULL,-21.75,-47.11,MM,4,4,NULL,NULL,NULL,NULL,NULL,NULL,BR,NULL,SAO PAULO,NULL,NULL,NULL,NULL,NULL,NULL
4000,29,BR_29,CASSIA,NULL,NULL,NULL,-20.58,-46.93,MM,4,4,NULL,NULL,NULL,NULL,NULL,NULL,BR,NULL,MINAS GERAIS,NULL,NULL,NULL,NULL,NULL,NULL
4000,30,BR_30,CAXAMBU,NULL,NULL,NULL,-21.98,-44.94,MM,3,3,NULL,NULL,NULL,NULL,NULL,NULL,BR,NULL,MINAS GERAIS,NULL,NULL,NULL,NULL,NULL,NULL
4000,31,BR_31,CERQUILHO,NULL,NULL,NULL,-23.17,-47.73,MM,5,5,NULL,NULL,NULL,NULL,NULL,NULL,BR,NULL,SAO PAULO,NULL,NULL,NULL,NULL,NULL,NULL
4000,32,BR_32,CORDEIROPOLIS,NULL,NULL,NULL,-22.49,-47.45,MM,5,5,NULL,NULL,NULL,NULL,NULL,NULL,BR,NULL,SAO PAULO,NULL,NULL,NULL,NULL,NULL,NULL
4000,33,BR_33,COSMOPOLIS,NULL,NULL,NULL,-22.64,-47.19,MM,5,5,NULL,NULL,NULL,NULL,NULL,NULL,BR,NULL,SAO PAULO,NULL,NULL,NULL,NULL,NULL,NULL
4000,34,BR_34,CRUZEIRO,NULL,NULL,NULL,-22.58,-44.96,MM,3,3,NULL,NULL,NULL,NULL,NULL,NULL,BR,NULL, SAO PAULO,NULL,NULL,NULL,NULL,NULL,NULL
4000,35,BR_35,CUBATAO,NULL,NULL,NULL,-23.88,-46.42,MM,3,3,NULL,NULL,NULL,NULL,NULL,NULL,BR,NULL, SAO PAULO,NULL,NULL,NULL,NULL,NULL,NULL
4000,36,BR_36,CUTIA,NULL,NULL,NULL,-23.61,-46.92,MM,4,4,NULL,NULL,NULL,NULL,NULL,NULL,BR,NULL,SAO PAULO,NULL,NULL,NULL,NULL,NULL,NULL
4000,37,BR_37,DESCALVADO,NULL,NULL,NULL,-21.9,-47.63,MM,4,4,NULL,NULL,NULL,NULL,NULL,NULL,BR,NULL,SAO PAULO,NULL,NULL,NULL,NULL,NULL,NULL
4000,38,BR_38,ELIAS FAUSTO,NULL,NULL,NULL,-23.04,-47.38,MM,4,4,NULL,NULL,NULL,NULL,NULL,NULL,BR,NULL,SAO PAULO,NULL,NULL,NULL,NULL,NULL,NULL
4000,39,BR_39,ELOI MENDES,NULL,NULL,NULL,-21.61,-45.57,MM,3,3,NULL,NULL,NULL,NULL,NULL,NULL,BR,NULL,MINAS GERAIS,NULL,NULL,NULL,NULL,NULL,NULL
4000,40,BR_40,ENGENHEIRO COELHO,NULL,NULL,NULL,-22.5,-47.21,MM,4,4,NULL,NULL,NULL,NULL,NULL,NULL,BR,NULL,SAO PAULO,NULL,NULL,NULL,NULL,NULL,NULL
4000,41,BR_41,ENTRE RIOS,NULL,NULL,NULL,-20.68,-44.06,MM,3,3,NULL,NULL,NULL,NULL,NULL,NULL,BR,NULL,MINAS GERAIS,NULL,NULL,NULL,NULL,NULL,NULL
4000,42,BR_42,ESPIRITO SANTO PINHAL,NULL,NULL,NULL,-22.19,-46.75,MM,6,6,NULL,NULL,NULL,NULL,NULL,NULL,BR,NULL,SAO PAULO,NULL,NULL,NULL,NULL,NULL,NULL
4000,43,BR_43,FRANCA,NULL,NULL,NULL,-20.54,-47.4,MM,4,4,NULL,NULL,NULL,NULL,NULL,NULL,BR,NULL,SAO PAULO,NULL,NULL,NULL,NULL,NULL,NULL
4000,44,BR_44,GUARANESIA,NULL,NULL,NULL,-21.31,-46.8,MM,5,5,NULL,NULL,NULL,NULL,NULL,NULL,BR,NULL,MINAS GERAIS,NULL,NULL,NULL,NULL,NULL,NULL
4000,45,BR_45,GUARATINGUETA,NULL,NULL,NULL,-22.81,-45.2,MM,3,3,NULL,NULL,NULL,NULL,NULL,NULL,BR,NULL,SAO PAULO,NULL,NULL,NULL,NULL,NULL,NULL
4000,46,BR_46,GUARIBA,NULL,NULL,NULL,-21.36,-48.24,MM,4,4,NULL,NULL,NULL,NULL,NULL,NULL,BR,NULL,SAO PAULO,NULL,NULL,NULL,NULL,NULL,NULL
4000,47,BR_47,GUARUJA,NULL,NULL,NULL,-24,-46.25,MM,3,3,NULL,NULL,NULL,NULL,NULL,NULL,BR,NULL, SAO PAULO,NULL,NULL,NULL,NULL,NULL,NULL
4000,48,BR_48,GUAXUPE,NULL,NULL,NULL,-21.31,-46.72,MM,4,4,NULL,NULL,NULL,NULL,NULL,NULL,BR,NULL,MINAS GERAIS,NULL,NULL,NULL,NULL,NULL,NULL
4000,49,BR_49,IGARAPAVA,NULL,NULL,NULL,-20.04,-47.79,MM,2,2,NULL,NULL,NULL,NULL,NULL,NULL,BR,NULL,SAO PAULO,NULL,NULL,NULL,NULL,NULL,NULL
4000,50,BR_50,IGUAPE,NULL,NULL,NULL,-24.71,-47.55,MM,2,2,NULL,NULL,NULL,NULL,NULL,NULL,BR,NULL, SAO PAULO,NULL,NULL,NULL,NULL,NULL,NULL
4000,51,BR_51,INDAIATUBA,NULL,NULL,NULL,-23.09,-47.23,MM,4,4,NULL,NULL,NULL,NULL,NULL,NULL,BR,NULL,SAO PAULO,NULL,NULL,NULL,NULL,NULL,NULL
4000,52,BR_52,ITAJUBA,NULL,NULL,NULL,-22.43,-45.45,MM,3,3,NULL,NULL,NULL,NULL,NULL,NULL,BR,NULL,MINAS GERAIS,NULL,NULL,NULL,NULL,NULL,NULL
4000,53,BR_53,ITAPECERICA,NULL,NULL,NULL,-23.72,-46.84,MM,4,4,NULL,NULL,NULL,NULL,NULL,NULL,BR,NULL,SAO PAULO,NULL,NULL,NULL,NULL,NULL,NULL
4000,54,BR_54,ITAPETININGA,NULL,NULL,NULL,-23.59,-48.04,MM,5,5,NULL,NULL,NULL,NULL,NULL,NULL,BR,NULL,SAO PAULO,NULL,NULL,NULL,NULL,NULL,NULL
4000,55,BR_55,ITAPEVA,NULL,NULL,NULL,-23.97,-48.86,MM,3,3,NULL,NULL,NULL,NULL,NULL,NULL,BR,NULL,SAO PAULO,NULL,NULL,NULL,NULL,NULL,NULL
4000,56,BR_56,ITAPIRA,NULL,NULL,NULL,-22.44,-46.82,MM,5,5,NULL,NULL,NULL,NULL,NULL,NULL,BR,NULL,SAO PAULO,NULL,NULL,NULL,NULL,NULL,NULL
4000,57,BR_57,ITARARE,NULL,NULL,NULL,-24.11,-49.34,MM,-1,-1,NULL,NULL,NULL,NULL,NULL,NULL,BR,NULL,SAO PAULO,NULL,NULL,NULL,NULL,NULL,NULL
4000,58,BR_58,ITATIBA,NULL,NULL,NULL,-22.99,-46.85,MM,5,5,NULL,NULL,NULL,NULL,NULL,NULL,BR,NULL,SAO PAULO,NULL,NULL,NULL,NULL,NULL,NULL
4000,59,BR_59,ITIRAPINA,NULL,NULL,NULL,-22.25,-47.82,MM,4,4,NULL,NULL,NULL,NULL,NULL,NULL,BR,NULL,SAO PAULO,NULL,NULL,NULL,NULL,NULL,NULL
4000,60,BR_60,ITU,NULL,NULL,NULL,-23.27,-47.31,MM,4,4,NULL,NULL,NULL,NULL,NULL,NULL,BR,NULL,SAO PAULO,NULL,NULL,NULL,NULL,NULL,NULL
4000,61,BR_61,JABOTICABAL,NULL,NULL,NULL,-21.24,-48.32,MM,4,4,NULL,NULL,NULL,NULL,NULL,NULL,BR,NULL,SAO PAULO,NULL,NULL,NULL,NULL,NULL,NULL
4000,62,BR_62,JACUI,NULL,NULL,NULL,-21.02,-46.74,MM,4,4,NULL,NULL,NULL,NULL,NULL,NULL,BR,NULL,MINAS GERAIS,NULL,NULL,NULL,NULL,NULL,NULL
4000,63,BR_63,JACUTINGA,NULL,NULL,NULL,-22.29,-46.6,MM,5,5,NULL,NULL,NULL,NULL,NULL,NULL,BR,NULL,MINAS GERAIS,NULL,NULL,NULL,NULL,NULL,NULL
4000,64,BR_64,JAU,NULL,NULL,NULL,-22.29,-48.55,MM,3,3,NULL,NULL,NULL,NULL,NULL,NULL,BR,NULL,SAO PAULO,NULL,NULL,NULL,NULL,NULL,NULL
4000,65,BR_65,JOANOPOLIS,NULL,NULL,NULL,-22.94,-46.28,MM,3,3,NULL,NULL,NULL,NULL,NULL,NULL,BR,NULL,SAO PAULO,NULL,NULL,NULL,NULL,NULL,NULL
4000,66,BR_66,JUIZ DE FORA,NULL,NULL,NULL,-21.75,-43.3,MM,2,2,NULL,NULL,NULL,NULL,NULL,NULL,BR,NULL,MINAS GERAIS,NULL,NULL,NULL,NULL,NULL,NULL
4000,67,BR_67,JUNDIAI,NULL,NULL,NULL,-23.18,-46.9,MM,4,4,NULL,NULL,NULL,NULL,NULL,NULL,BR,NULL,SAO PAULO,NULL,NULL,NULL,NULL,NULL,NULL
4000,68,BR_68,LARANJAL,NULL,NULL,NULL,-23.05,-47.83,MM,4,4,NULL,NULL,NULL,NULL,NULL,NULL,BR,NULL,SAO PAULO,NULL,NULL,NULL,NULL,NULL,NULL
4000,69,BR_69,LEME,NULL,NULL,NULL,-22.19,-47.39,MM,5,5,NULL,NULL,NULL,NULL,NULL,NULL,BR,NULL,SAO PAULO,NULL,NULL,NULL,NULL,NULL,NULL
4000,70,BR_70,LENCOIS,NULL,NULL,NULL,-22.6,-48.8,MM,3,3,NULL,NULL,NULL,NULL,NULL,NULL,BR,NULL,SAO PAULO,NULL,NULL,NULL,NULL,NULL,NULL
4000,71,BR_71,LIMEIRA,NULL,NULL,NULL,-22.57,-47.4,MM,5,5,NULL,NULL,NULL,NULL,NULL,NULL,BR,NULL,SAO PAULO,NULL,NULL,NULL,NULL,NULL,NULL
4000,72,BR_72,LINDOIA,NULL,NULL,NULL,-22.52,-46.66,MM,5,5,NULL,NULL,NULL,NULL,NULL,NULL,BR,NULL,SAO PAULO,NULL,NULL,NULL,NULL,NULL,NULL
4000,73,BR_73,LORENA,NULL,NULL,NULL,-22.74,-45.13,MM,3,3,NULL,NULL,NULL,NULL,NULL,NULL,BR,NULL,SAO PAULO,NULL,NULL,NULL,NULL,NULL,NULL
4000,74,BR_74,MACUCO,NULL,NULL,NULL,-21.12,-48.19,MM,4,4,NULL,NULL,NULL,NULL,NULL,NULL,BR,NULL,SAO PAULO,NULL,NULL,NULL,NULL,NULL,NULL
4000,75,BR_75,MARIANA,NULL,NULL,NULL,-20.37,-43.42,MM,2,2,NULL,NULL,NULL,NULL,NULL,NULL,BR,NULL,MINAS GERAIS,NULL,NULL,NULL,NULL,NULL,NULL
4000,76,BR_76,MOCOCA,NULL,NULL,NULL,-21.46,-47,MM,5,5,NULL,NULL,NULL,NULL,NULL,NULL,BR,NULL,SAO PAULO,NULL,NULL,NULL,NULL,NULL,NULL
4000,77,BR_77,MOGI MIRIM,NULL,NULL,NULL,-22.43,-46.96,MM,5,5,NULL,NULL,NULL,NULL,NULL,NULL,BR,NULL,SAO PAULO,NULL,NULL,NULL,NULL,NULL,NULL
4000,78,BR_78,MONTE BELO,NULL,NULL,NULL,-21.32,-46.36,MM,4,4,NULL,NULL,NULL,NULL,NULL,NULL,BR,NULL,MINAS GERAIS,NULL,NULL,NULL,NULL,NULL,NULL
4000,79,BR_79,MONTE MOR,NULL,NULL,NULL,-22.95,-47.32,MM,5,5,NULL,NULL,NULL,NULL,NULL,NULL,BR,NULL,SAO PAULO,NULL,NULL,NULL,NULL,NULL,NULL
4000,80,BR_80,MONTE SANTO,NULL,NULL,NULL,-21.19,-46.98,MM,4,4,NULL,NULL,NULL,NULL,NULL,NULL,BR,NULL,MINAS GERAIS,NULL,NULL,NULL,NULL,NULL,NULL
4000,81,BR_81,MONTE SIAO,NULL,NULL,NULL,-22.43,-46.57,MM,4,4,NULL,NULL,NULL,NULL,NULL,NULL,BR,NULL,MINAS GERAIS,NULL,NULL,NULL,NULL,NULL,NULL
4000,82,BR_82,MUZAMBINHO,NULL,NULL,NULL,-21.37,-46.53,MM,4,4,NULL,NULL,NULL,NULL,NULL,NULL,BR,NULL,MINAS GERAIS,NULL,NULL,NULL,NULL,NULL,NULL
4000,83,BR_83,NOVA EUROPA,NULL,NULL,NULL,-21.77,-48.57,MM,4,4,NULL,NULL,NULL,NULL,NULL,NULL,BR,NULL,SAO PAULO,NULL,NULL,NULL,NULL,NULL,NULL
4000,84,BR_84,ORLANDIA,NULL,NULL,NULL,-20.73,-47.89,MM,3,3,NULL,NULL,NULL,NULL,NULL,NULL,BR,NULL,SAO PAULO,NULL,NULL,NULL,NULL,NULL,NULL
4000,85,BR_85,OURO FINO,NULL,NULL,NULL,-22.28,-46.37,MM,4,4,NULL,NULL,NULL,NULL,NULL,NULL,BR,NULL,MINAS GERAIS,NULL,NULL,NULL,NULL,NULL,NULL
4000,86,BR_86,PARAGUACU,NULL,NULL,NULL,-21.55,-45.74,MM,3,3,NULL,NULL,NULL,NULL,NULL,NULL,BR,NULL,MINAS GERAIS,NULL,NULL,NULL,NULL,NULL,NULL
4000,87,BR_87,PARAGUACU PAULISTA,NULL,NULL,NULL,-22.42,-50.58,MM,-1,-1,NULL,NULL,NULL,NULL,NULL,NULL,BR,NULL, SAO PAULO,NULL,NULL,NULL,NULL,NULL,NULL
4000,88,BR_88,PARAISOPOLIS,NULL,NULL,NULL,-22.55,-45.78,MM,4,4,NULL,NULL,NULL,NULL,NULL,NULL,BR,NULL,MINAS GERAIS,NULL,NULL,NULL,NULL,NULL,NULL
4000,89,BR_89,PARATY,NULL,NULL,NULL,-23.24,-44.63,MM,-1,-1,NULL,NULL,NULL,NULL,NULL,NULL,BR,NULL, RIO DE JANEIRO,NULL,NULL,NULL,NULL,NULL,NULL
4000,90,BR_90,PERDOES,NULL,NULL,NULL,-21.09,-45.09,MM,3,3,NULL,NULL,NULL,NULL,NULL,NULL,BR,NULL,MINAS GERAIS,NULL,NULL,NULL,NULL,NULL,NULL
4000,91,BR_91,PETROPOLIS,NULL,NULL,NULL,-22.52,-43.17,MM,2,2,NULL,NULL,NULL,NULL,NULL,NULL,BR,NULL,RIO DE JANEIRO,NULL,NULL,NULL,NULL,NULL,NULL
4000,92,BR_92,PILAR DO SUL,NULL,NULL,NULL,-23.76,-47.74,MM,4,4,NULL,NULL,NULL,NULL,NULL,NULL,BR,NULL,SAO PAULO,NULL,NULL,NULL,NULL,NULL,NULL
4000,93,BR_93,PINDAMONHANGABA,NULL,NULL,NULL,-22.93,-45.47,MM,3,3,NULL,NULL,NULL,NULL,NULL,NULL,BR,NULL,SAO PAULO,NULL,NULL,NULL,NULL,NULL,NULL
4000,94,BR_94,PIRACAIA,NULL,NULL,NULL,-23.05,-46.35,MM,4,4,NULL,NULL,NULL,NULL,NULL,NULL,BR,NULL,SAO PAULO,NULL,NULL,NULL,NULL,NULL,NULL
4000,95,BR_95,PIRACICABA,NULL,NULL,NULL,-22.67,-47.68,MM,4,4,NULL,NULL,NULL,NULL,NULL,NULL,BR,NULL,SAO PAULO,NULL,NULL,NULL,NULL,NULL,NULL
4000,96,BR_96,PIRACUNUNGA,NULL,NULL,NULL,-22,-47.42,MM,4,4,NULL,NULL,NULL,NULL,NULL,NULL,BR,NULL,SAO PAULO,NULL,NULL,NULL,NULL,NULL,NULL
4000,97,BR_97,PITANGUEIRAS,NULL,NULL,NULL,-21.01,-48.22,MM,4,4,NULL,NULL,NULL,NULL,NULL,NULL,BR,NULL,SAO PAULO,NULL,NULL,NULL,NULL,NULL,NULL
4000,98,BR_98,POCOS DE CALDAS,NULL,NULL,NULL,-21.79,-46.57,MM,5,5,NULL,NULL,NULL,NULL,NULL,NULL,BR,NULL,MINAS GERAIS,NULL,NULL,NULL,NULL,NULL,NULL
4000,99,BR_99,PONTAL,NULL,NULL,NULL,-21.01,-48.1,MM,3,3,NULL,NULL,NULL,NULL,NULL,NULL,BR,NULL,SAO PAULO,NULL,NULL,NULL,NULL,NULL,NULL
4000,100,BR_100,PORTO FELIZ,NULL,NULL,NULL,-23.22,-47.52,MM,4,4,NULL,NULL,NULL,NULL,NULL,NULL,BR,NULL,SAO PAULO,NULL,NULL,NULL,NULL,NULL,NULL
4000,101,BR_101,PORTO FERREIRA,NULL,NULL,NULL,-21.86,-47.49,MM,5,5,NULL,NULL,NULL,NULL,NULL,NULL,BR,NULL,SAO PAULO,NULL,NULL,NULL,NULL,NULL,NULL
4000,102,BR_102,POUSO ALEGRE,NULL,NULL,NULL,-22.23,-45.93,MM,4,4,NULL,NULL,NULL,NULL,NULL,NULL,BR,NULL,MINAS GERAIS,NULL,NULL,NULL,NULL,NULL,NULL
4000,103,BR_103,PRAINHA,NULL,NULL,NULL,-24.29,-47.46,MM,2,2,NULL,NULL,NULL,NULL,NULL,NULL,BR,NULL,SAO PAULO,NULL,NULL,NULL,NULL,NULL,NULL
4000,104,BR_104,RIBEIRAO PRETO,NULL,NULL,NULL,-21.17,-47.81,MM,4,4,NULL,NULL,NULL,NULL,NULL,NULL,BR,NULL,SAO PAULO,NULL,NULL,NULL,NULL,NULL,NULL
4000,105,BR_105,RINCAO,NULL,NULL,NULL,-21.58,-48.08,MM,4,4,NULL,NULL,NULL,NULL,NULL,NULL,BR,NULL,SAO PAULO,NULL,NULL,NULL,NULL,NULL,NULL
4000,106,BR_106,RIO CLARO,NULL,NULL,NULL,-22.41,-47.56,MM,5,5,NULL,NULL,NULL,NULL,NULL,NULL,BR,NULL,SAO PAULO,NULL,NULL,NULL,NULL,NULL,NULL
4000,107,BR_107,RIO DE JANEIRO,NULL,NULL,NULL,-22.91,-43.21,MM,2,2,NULL,NULL,NULL,NULL,NULL,NULL,BR,NULL,RIO DE JANEIRO,NULL,NULL,NULL,NULL,NULL,NULL
4000,108,BR_108,S. CRUZ DAS PALMEIRAS,NULL,NULL,NULL,-21.82,-47.25,MM,4,4,NULL,NULL,NULL,NULL,NULL,NULL,BR,NULL,SAO PAULO,NULL,NULL,NULL,NULL,NULL,NULL
4000,109,BR_109,S. RITA PASSA QUATRO,NULL,NULL,NULL,-21.7,-47.48,MM,4,4,NULL,NULL,NULL,NULL,NULL,NULL,BR,NULL,SAO PAULO,NULL,NULL,NULL,NULL,NULL,NULL
4000,110,BR_110,S. S. DO PARAISO,NULL,NULL,NULL,-20.92,-46.99,MM,4,4,NULL,NULL,NULL,NULL,NULL,NULL,BR,NULL,MINAS GERAIS,NULL,NULL,NULL,NULL,NULL,NULL
4000,111,BR_111,SALTO,NULL,NULL,NULL,-23.21,-47.29,MM,4,4,NULL,NULL,NULL,NULL,NULL,NULL,BR,NULL,SAO PAULO,NULL,NULL,NULL,NULL,NULL,NULL
4000,112,BR_112,SANTA ROSA DE VITERBO,NULL,NULL,NULL,-21.42,-47.37,MM,4,4,NULL,NULL,NULL,NULL,NULL,NULL,BR,NULL,SAO PAULO,NULL,NULL,NULL,NULL,NULL,NULL
4000,113,BR_113,SANTANA DO PARNAIBA,NULL,NULL,NULL,-23.45,-46.92,MM,4,4,NULL,NULL,NULL,NULL,NULL,NULL,BR,NULL,SAO PAULO,NULL,NULL,NULL,NULL,NULL,NULL
4000,114,BR_114,SAO BERNARDO DO CAMPO,NULL,NULL,NULL,-23.7,-46.54,MM,4,4,NULL,NULL,NULL,NULL,NULL,NULL,BR,NULL,SAO PAULO,NULL,NULL,NULL,NULL,NULL,NULL
4000,115,BR_115,SAO CARLOS,NULL,NULL,NULL,-22.02,-47.89,MM,5,5,NULL,NULL,NULL,NULL,NULL,NULL,BR,NULL,SAO PAULO,NULL,NULL,NULL,NULL,NULL,NULL
4000,116,BR_116,SAO JOAO DA BOA VISTA,NULL,NULL,NULL,-21.95,-46.79,MM,6,6,NULL,NULL,NULL,NULL,NULL,NULL,BR,NULL,SAO PAULO,NULL,NULL,NULL,NULL,NULL,NULL
4000,117,BR_117,SAO JOSE,NULL,NULL,NULL,-23.18,-45.88,MM,4,4,NULL,NULL,NULL,NULL,NULL,NULL,BR,NULL,SAO PAULO,NULL,NULL,NULL,NULL,NULL,NULL
4000,118,BR_118,SAO JOSE DO RIO PARDO,NULL,NULL,NULL,-21.6,-46.89,MM,4,4,NULL,NULL,NULL,NULL,NULL,NULL,BR,NULL, SAO PAULO,NULL,NULL,NULL,NULL,NULL,NULL
4000,119,BR_119,SAO MANUEL,NULL,NULL,NULL,-22.73,-48.57,MM,4,4,NULL,NULL,NULL,NULL,NULL,NULL,BR,NULL,SAO PAULO,NULL,NULL,NULL,NULL,NULL,NULL
4000,120,BR_120,SAO MIGUEL,NULL,NULL,NULL,-23.47,-46.54,MM,4,4,NULL,NULL,NULL,NULL,NULL,NULL,BR,NULL,SAO PAULO,NULL,NULL,NULL,NULL,NULL,NULL
4000,121,BR_121,SAO PAULO,NULL,NULL,NULL,-23.54,-46.62,MM,5,5,NULL,NULL,NULL,NULL,NULL,NULL,BR,NULL,SAO PAULO,NULL,NULL,NULL,NULL,NULL,NULL
4000,122,BR_122,SAO PEDRO,NULL,NULL,NULL,-22.55,-47.91,MM,4,4,NULL,NULL,NULL,NULL,NULL,NULL,BR,NULL,SAO PAULO,NULL,NULL,NULL,NULL,NULL,NULL
4000,123,BR_123,SAO ROQUE,NULL,NULL,NULL,-23.53,-47.12,MM,4,4,NULL,NULL,NULL,NULL,NULL,NULL,BR,NULL,SAO PAULO,NULL,NULL,NULL,NULL,NULL,NULL
4000,124,BR_124,SAO SEBASTIAO DA GRAMA,NULL,NULL,NULL,-21.7,-46.82,MM,4,4,NULL,NULL,NULL,NULL,NULL,NULL,BR,NULL,SAO PAULO,NULL,NULL,NULL,NULL,NULL,NULL
4000,125,BR_125,SAO SIMAO,NULL,NULL,NULL,-21.48,-47.56,MM,4,4,NULL,NULL,NULL,NULL,NULL,NULL,BR,NULL,SAO PAULO,NULL,NULL,NULL,NULL,NULL,NULL
4000,126,BR_126,SAO VICENTE,NULL,NULL,NULL,-23.97,-46.38,MM,4,4,NULL,NULL,NULL,NULL,NULL,NULL,BR,NULL,SAO PAULO,NULL,NULL,NULL,NULL,NULL,NULL
4000,127,BR_127,SERRA AZUL,NULL,NULL,NULL,-21.31,-47.53,MM,4,4,NULL,NULL,NULL,NULL,NULL,NULL,BR,NULL,SAO PAULO,NULL,NULL,NULL,NULL,NULL,NULL
4000,128,BR_128,SERRA NEGRA,NULL,NULL,NULL,-22.61,-46.7,MM,4,4,NULL,NULL,NULL,NULL,NULL,NULL,BR,NULL,SAO PAULO,NULL,NULL,NULL,NULL,NULL,NULL
4000,129,BR_129,SERTAOZINHO,NULL,NULL,NULL,-21.13,-47.99,MM,4,4,NULL,NULL,NULL,NULL,NULL,NULL,BR,NULL,SAO PAULO,NULL,NULL,NULL,NULL,NULL,NULL
4000,130,BR_130,SOCORRO,NULL,NULL,NULL,-22.59,-46.53,MM,4,4,NULL,NULL,NULL,NULL,NULL,NULL,BR,NULL,SAO PAULO,NULL,NULL,NULL,NULL,NULL,NULL
4000,131,BR_131,SOROCABA,NULL,NULL,NULL,-23.5,-47.46,MM,4,4,NULL,NULL,NULL,NULL,NULL,NULL,BR,NULL,SAO PAULO,NULL,NULL,NULL,NULL,NULL,NULL
4000,132,BR_132,TATUI,NULL,NULL,NULL,-23.35,-47.84,MM,4,4,NULL,NULL,NULL,NULL,NULL,NULL,BR,NULL,SAO PAULO,NULL,NULL,NULL,NULL,NULL,NULL
4000,133,BR_133,TAUBATE,NULL,NULL,NULL,-23.03,-45.56,MM,3,3,NULL,NULL,NULL,NULL,NULL,NULL,BR,NULL,SAO PAULO,NULL,NULL,NULL,NULL,NULL,NULL
4000,134,BR_134,TORRINHA,NULL,NULL,NULL,-22.42,-48.18,MM,4,4,NULL,NULL,NULL,NULL,NULL,NULL,BR,NULL,SAO PAULO,NULL,NULL,NULL,NULL,NULL,NULL
4000,135,BR_135,TRES CORACOES,NULL,NULL,NULL,-21.7,-45.25,MM,3,3,NULL,NULL,NULL,NULL,NULL,NULL,BR,NULL,MINAS GERAIS,NULL,NULL,NULL,NULL,NULL,NULL
4000,136,BR_136,TRES PONTAS,NULL,NULL,NULL,-21.36,-45.51,MM,3,3,NULL,NULL,NULL,NULL,NULL,NULL,BR,NULL,MINAS GERAIS,NULL,NULL,NULL,NULL,NULL,NULL
4000,137,BR_137,UBERABA,NULL,NULL,NULL,-19.71,-47.98,MM,-1,-1,NULL,NULL,NULL,NULL,NULL,NULL,BR,NULL, MINAS GERAIS,NULL,NULL,NULL,NULL,NULL,NULL
4000,138,BR_138,UBERLANDIA,NULL,NULL,NULL,-18.9,-48.28,MM,-1,-1,NULL,NULL,NULL,NULL,NULL,NULL,BR,NULL,MINAS GERAIS,NULL,NULL,NULL,NULL,NULL,NULL
4000,139,BR_139,UNA,NULL,NULL,NULL,-23.65,-47.21,MM,4,4,NULL,NULL,NULL,NULL,NULL,NULL,BR,NULL,SAO PAULO,NULL,NULL,NULL,NULL,NULL,NULL
4000,140,BR_140,VARGINHA,NULL,NULL,NULL,-21.56,-45.44,MM,4,4,NULL,NULL,NULL,NULL,NULL,NULL,BR,NULL,MINAS GERAIS,NULL,NULL,NULL,NULL,NULL,NULL
4000,141,BR_141,XIRIRICA (E. PAUL.),NULL,NULL,NULL,-24.52,-48.11,MM,3,3,NULL,NULL,NULL,NULL,NULL,NULL,BR,NULL,SAO PAULO,NULL,NULL,NULL,NULL,NULL,NULL
4001,142,BR_142,RONDONOPOLIS,NULL,NULL,NULL,-16.47,-54.64,MM,3.5,3.5,NULL,NULL,NULL,NULL,NULL,NULL,BR,NULL,MATO GROSSO,NULL,NULL,NULL,NULL,NULL,NULL
4001,143,BR_143,POXOREU,NULL,NULL,NULL,-15.84,-54.39,MM,3.5,3.5,NULL,NULL,NULL,NULL,NULL,NULL,BR,NULL,MATO GROSSO,NULL,NULL,NULL,NULL,NULL,NULL
4001,144,BR_144,CUIABA,NULL,NULL,NULL,-15.60,-56.10,MM,4.5,4.5,NULL,NULL,NULL,NULL,NULL,NULL,BR,NULL,MATO GROSSO,NULL,NULL,NULL,NULL,NULL,NULL
4001,145,BR_145,PORTO ESTRELA,NULL,NULL,NULL,-15.32,-57.23,MM,4.5,4.5,NULL,NULL,NULL,NULL,NULL,NULL,BR,NULL,MATO GROSSO,NULL,NULL,NULL,NULL,NULL,NULL
4001,146,BR_146,CACERES,NULL,NULL,NULL,-16.07,-57.68,MM,3.5,3.5,NULL,NULL,NULL,NULL,NULL,NULL,BR,NULL,MATO GROSSO,NULL,NULL,NULL,NULL,NULL,NULL
4001,147,BR_147,DIAMANTINO,NULL,NULL,NULL,-14.41,-56.45,MM,4.5,4.5,NULL,NULL,NULL,NULL,NULL,NULL,BR,NULL,MATO GROSSO,NULL,NULL,NULL,NULL,NULL,NULL
4001,148,BR_148,BARRO DO BUGRES,NULL,NULL,NULL,-15.07,-57.18,MM,5,5,NULL,NULL,NULL,NULL,NULL,NULL,BR,NULL,MATO GROSSO,NULL,NULL,NULL,NULL,NULL,NULL
4001,149,BR_149,SANTO AFONSO,NULL,NULL,NULL,-14.50,-57.00,MM,5,5,NULL,NULL,NULL,NULL,NULL,NULL,BR,NULL,MATO GROSSO,NULL,NULL,NULL,NULL,NULL,NULL
4001,150,BR_150,NORTELANDIA,NULL,NULL,NULL,-14.41,-56.72,MM,5,5,NULL,NULL,NULL,NULL,NULL,NULL,BR,NULL,MATO GROSSO,NULL,NULL,NULL,NULL,NULL,NULL
4001,151,BR_151,AREANOPOLIS,NULL,NULL,NULL,-14.54,-56.79,MM,5,5,NULL,NULL,NULL,NULL,NULL,NULL,BR,NULL,MATO GROSSO,NULL,NULL,NULL,NULL,NULL,NULL
4001,152,BR_152,ALTO PARAGUAI,NULL,NULL,NULL,-14.61,-56.57,MM,5,5,NULL,NULL,NULL,NULL,NULL,NULL,BR,NULL,MATO GROSSO,NULL,NULL,NULL,NULL,NULL,NULL
4001,153,BR_153,NOBRES,NULL,NULL,NULL,-14.63,-56.30,MM,4.5,4.5,NULL,NULL,NULL,NULL,NULL,NULL,BR,NULL,MATO GROSSO,NULL,NULL,NULL,NULL,NULL,NULL
4001,154,BR_154,SAPEZAL(UTIARITI),NULL,NULL,NULL,-13.06,-58.18,MM,4.5,4.5,NULL,NULL,NULL,NULL,NULL,NULL,BR,NULL,MATO GROSSO,NULL,NULL,NULL,NULL,NULL,NULL
4001,155,BR_155,POCOME,NULL,NULL,NULL,-16.27,-56.63,MM,3.5,3.5,NULL,NULL,NULL,NULL,NULL,NULL,BR,NULL,MATO GROSSO,NULL,NULL,NULL,NULL,NULL,NULL
4001,156,BR_156,COXIM,NULL,NULL,NULL,-18.51,-54.76,MM,2,2,NULL,NULL,NULL,NULL,NULL,NULL,BR,NULL,MATO GROSSO DO SUL,NULL,NULL,NULL,NULL,NULL,NULL
4002,157,BR_157,COLATINA,NULL,NULL,NULL,-19.54,-40.62,MM,4,4,NULL,NULL,NULL,NULL,NULL,NULL,BR,NULL,ESPIRITO SANTO,NULL,NULL,NULL,NULL,NULL,NULL
4002,158,BR_158,CACHOEIRA ITAPEMIRIM,NULL,NULL,NULL,-20.85,-41.09,MM,4,4,NULL,NULL,NULL,NULL,NULL,NULL,BR,NULL,ESPIRITO SANTO,NULL,NULL,NULL,NULL,NULL,NULL
4002,159,BR_159,GUARAPARI,NULL,NULL,NULL,-20.67,-40.51,MM,5,5,NULL,NULL,NULL,NULL,NULL,NULL,BR,NULL,ESPIRITO SANTO,NULL,NULL,NULL,NULL,NULL,NULL
4002,160,BR_160,JOAO NEIVA,NULL,NULL,NULL,-19.76,-40.40,MM,4,4,NULL,NULL,NULL,NULL,NULL,NULL,BR,NULL,ESPIRITO SANTO,NULL,NULL,NULL,NULL,NULL,NULL
4002,161,BR_161,LINHARES,NULL,NULL,NULL,-19.40,-40.07,MM,4,4,NULL,NULL,NULL,NULL,NULL,NULL,BR,NULL,ESPIRITO SANTO,NULL,NULL,NULL,NULL,NULL,NULL
4002,162,BR_162,MARILANDIA,NULL,NULL,NULL,-19.41,-40.53,MM,4,4,NULL,NULL,NULL,NULL,NULL,NULL,BR,NULL,ESPIRITO SANTO,NULL,NULL,NULL,NULL,NULL,NULL
4002,163,BR_163,NOVA VENECIA,NULL,NULL,NULL,-18.71,-40.41,MM,4,4,NULL,NULL,NULL,NULL,NULL,NULL,BR,NULL,ESPIRITO SANTO,NULL,NULL,NULL,NULL,NULL,NULL
4002,164,BR_164,MIMOSO DO SUL,NULL,NULL,NULL,-21.07,-41.37,MM,4,4,NULL,NULL,NULL,NULL,NULL,NULL,BR,NULL,ESPIRITO SANTO,NULL,NULL,NULL,NULL,NULL,NULL
4002,165,BR_165,TIMBUI,NULL,NULL,NULL,-20.01,-40.42,MM,4,4,NULL,NULL,NULL,NULL,NULL,NULL,BR,NULL,ESPIRITO SANTO,NULL,NULL,NULL,NULL,NULL,NULL
4002,166,BR_166,VITORIA,NULL,NULL,NULL,-20.31,-40.32,MM,5,5,NULL,NULL,NULL,NULL,NULL,NULL,BR,NULL,ESPIRITO SANTO,NULL,NULL,NULL,NULL,NULL,NULL
4003,167,BR_167,ANGRA DOS REIS,NULL,NULL,NULL,-22.96,-44.33,MM,4.5,4.5,NULL,NULL,NULL,NULL,NULL,NULL,BR,NULL,RIO DE JANEIRO,NULL,NULL,NULL,NULL,NULL,NULL
4003,168,BR_168,CARAGUATATUBA,NULL,NULL,NULL,-23.62,-45.41,MM,4.5,4.5,NULL,NULL,NULL,NULL,NULL,NULL,BR,NULL,SAO PAULO,NULL,NULL,NULL,NULL,NULL,NULL
4003,169,BR_169,CUNHA,NULL,NULL,NULL,-23.07,-44.96,MM,5,5,NULL,NULL,NULL,NULL,NULL,NULL,BR,NULL,SAO PAULO,NULL,NULL,NULL,NULL,NULL,NULL
4003,170,BR_170,MANGARATIBA,NULL,NULL,NULL,-22.95,-44.03,MM,4,4,NULL,NULL,NULL,NULL,NULL,NULL,BR,NULL,RIO DE JANEIRO,NULL,NULL,NULL,NULL,NULL,NULL
4003,171,BR_171,LAGOINHA,NULL,NULL,NULL,-23.09,-45.19,MM,4.5,4.5,NULL,NULL,NULL,NULL,NULL,NULL,BR,NULL,SAO PAULO,NULL,NULL,NULL,NULL,NULL,NULL
4003,172,BR_172,PARAIBUNA,NULL,NULL,NULL,-23.40,-45.66,MM,4,4,NULL,NULL,NULL,NULL,NULL,NULL,BR,NULL,SAO PAULO,NULL,NULL,NULL,NULL,NULL,NULL
4003,173,BR_173,PARATI,NULL,NULL,NULL,-23.23,-44.73,MM,4.5,4.5,NULL,NULL,NULL,NULL,NULL,NULL,BR,NULL,RIO DE JANEIRO,NULL,NULL,NULL,NULL,NULL,NULL
4003,174,BR_174,SAO LUIS PARAITINGA,NULL,NULL,NULL,-23.23,-45.31,MM,5,5,NULL,NULL,NULL,NULL,NULL,NULL,BR,NULL,SAO PAULO,NULL,NULL,NULL,NULL,NULL,NULL
4003,175,BR_175,SAO SEBASTIAO,NULL,NULL,NULL,-23.81,-45.41,MM,4,4,NULL,NULL,NULL,NULL,NULL,NULL,BR,NULL,SAO PAULO,NULL,NULL,NULL,NULL,NULL,NULL
4003,176,BR_176,TARITUBA,NULL,NULL,NULL,-23.04,-44.59,MM,4,4,NULL,NULL,NULL,NULL,NULL,NULL,BR,NULL,RIO DE JANEIRO,NULL,NULL,NULL,NULL,NULL,NULL
4003,177,BR_177,TRINDADE,NULL,NULL,NULL,-23.36,-44.72,MM,4.5,4.5,NULL,NULL,NULL,NULL,NULL,NULL,BR,NULL,RIO DE JANEIRO,NULL,NULL,NULL,NULL,NULL,NULL
4003,178,BR_178,UBATUBA,NULL,NULL,NULL,-23.44,-45.08,MM,4.5,4.5,NULL,NULL,NULL,NULL,NULL,NULL,BR,NULL,SAO PAULO,NULL,NULL,NULL,NULL,NULL,NULL
4003,179,BR_179,VOLTA REDONDA,NULL,NULL,NULL,-22.51,-44.12,MM,3.5,3.5,NULL,NULL,NULL,NULL,NULL,NULL,BR,NULL,RIO DE JANEIRO,NULL,NULL,NULL,NULL,NULL,NULL
4003,180,BR_180,,NULL,NULL,NULL,-23.33,-45.16,MM,7,7,NULL,NULL,NULL,NULL,NULL,NULL,BR,NULL,RIO DE JANEIRO,NULL,NULL,NULL,NULL,NULL,NULL
4003,181,BR_180,,NULL,NULL,NULL,-23.19,-45.89,MM,0,0,NULL,NULL,NULL,NULL,NULL,NULL,BR,NULL,RIO DE JANEIRO,NULL,NULL,NULL,NULL,NULL,NULL
4003,182,BR_180,,NULL,NULL,NULL,-23.03,-45.57,MM,0,0,NULL,NULL,NULL,NULL,NULL,NULL,BR,NULL,RIO DE JANEIRO,NULL,NULL,NULL,NULL,NULL,NULL
4003,183,BR_180,,NULL,NULL,NULL,-22.84,-45.24,MM,0,0,NULL,NULL,NULL,NULL,NULL,NULL,BR,NULL,RIO DE JANEIRO,NULL,NULL,NULL,NULL,NULL,NULL
4003,184,BR_180,,NULL,NULL,NULL,-22.92,-45.13,MM,0,0,NULL,NULL,NULL,NULL,NULL,NULL,BR,NULL,RIO DE JANEIRO,NULL,NULL,NULL,NULL,NULL,NULL
4003,185,BR_180,,NULL,NULL,NULL,-22.80,-45.20,MM,0,0,NULL,NULL,NULL,NULL,NULL,NULL,BR,NULL,RIO DE JANEIRO,NULL,NULL,NULL,NULL,NULL,NULL
4003,186,BR_180,,NULL,NULL,NULL,-22.72,-45.14,MM,0,0,NULL,NULL,NULL,NULL,NULL,NULL,BR,NULL,RIO DE JANEIRO,NULL,NULL,NULL,NULL,NULL,NULL
4003,187,BR_180,,NULL,NULL,NULL,-22.44,-44.47,MM,0,0,NULL,NULL,NULL,NULL,NULL,NULL,BR,NULL,RIO DE JANEIRO,NULL,NULL,NULL,NULL,NULL,NULL
4003,188,BR_180,,NULL,NULL,NULL,-22.52,-44.21,MM,0,0,NULL,NULL,NULL,NULL,NULL,NULL,BR,NULL,RIO DE JANEIRO,NULL,NULL,NULL,NULL,NULL,NULL
4003,189,BR_180,,NULL,NULL,NULL,-22.87,-43.32,MM,0,0,NULL,NULL,NULL,NULL,NULL,NULL,BR,NULL,RIO DE JANEIRO,NULL,NULL,NULL,NULL,NULL,NULL
4003,190,BR_180,,NULL,NULL,NULL,-23.11,-44.24,MM,0,0,NULL,NULL,NULL,NULL,NULL,NULL,BR,NULL,RIO DE JANEIRO,NULL,NULL,NULL,NULL,NULL,NULL
4003,191,BR_180,,NULL,NULL,NULL,-23.79,-45.32,MM,0,0,NULL,NULL,NULL,NULL,NULL,NULL,BR,NULL,RIO DE JANEIRO,NULL,NULL,NULL,NULL,NULL,NULL
4003,192,BR_180,,NULL,NULL,NULL,-23.10,-45.72,MM,-1,-1,NULL,NULL,NULL,NULL,NULL,NULL,BR,NULL,RIO DE JANEIRO,NULL,NULL,NULL,NULL,NULL,NULL
4003,193,BR_180,,NULL,NULL,NULL,-22.93,-45.47,MM,-1,-1,NULL,NULL,NULL,NULL,NULL,NULL,BR,NULL,RIO DE JANEIRO,NULL,NULL,NULL,NULL,NULL,NULL
4003,194,BR_180,,NULL,NULL,NULL,-22.74,-45.60,MM,-1,-1,NULL,NULL,NULL,NULL,NULL,NULL,BR,NULL,RIO DE JANEIRO,NULL,NULL,NULL,NULL,NULL,NULL
4003,195,BR_180,,NULL,NULL,NULL,-22.50,-43.20,MM,-1,-1,NULL,NULL,NULL,NULL,NULL,NULL,BR,NULL,RIO DE JANEIRO,NULL,NULL,NULL,NULL,NULL,NULL
4004,196,BR_181,SERRA DOS MACACOS,NULL,NULL,NULL,-6.09,-38.41,MM,6,6,NULL,NULL,NULL,NULL,NULL,NULL,BR,NULL,RIO GRANDE NORTE,NULL,NULL,NULL,NULL,NULL,NULL
4004,197,BR_182,PEREIRO,NULL,NULL,NULL,-6.05,-38.46,MM,5.5,5.5,NULL,NULL,NULL,NULL,NULL,NULL,BR,NULL,CEARA,NULL,NULL,NULL,NULL,NULL,NULL
4004,198,BR_183,JAGUARIBE,NULL,NULL,NULL,-5.90,-38.59,MM,4,4,NULL,NULL,NULL,NULL,NULL,NULL,BR,NULL,CEARA,NULL,NULL,NULL,NULL,NULL,NULL
4004,199,BR_184,DR. SEVERIANO,NULL,NULL,NULL,-6.09,-38.38,MM,0,0,NULL,NULL,NULL,NULL,NULL,NULL,BR,NULL,RIO GRANDE DO NORTE,NULL,NULL,NULL,NULL,NULL,NULL
4004,200,BR_185,MEREJO,NULL,NULL,NULL,-6.12,-38.40,MM,0,0,NULL,NULL,NULL,NULL,NULL,NULL,BR,NULL,RIO GRANDE DO NORTE,NULL,NULL,NULL,NULL,NULL,NULL
4004,201,BR_186,LAGOA DE DENTRO,NULL,NULL,NULL,-6.13,-38.44,MM,0,0,NULL,NULL,NULL,NULL,NULL,NULL,BR,NULL,RIO GRANDE DO NORTE,NULL,NULL,NULL,NULL,NULL,NULL
4004,202,BR_187,JARDIM,NULL,NULL,NULL,-6.11,-38.44,MM,0,0,NULL,NULL,NULL,NULL,NULL,NULL,BR,NULL,RIO GRANDE DO NORTE,NULL,NULL,NULL,NULL,NULL,NULL
4004,203,BR_180,,NULL,NULL,NULL,-6.11,-38.41,MM,0,0,NULL,NULL,NULL,NULL,NULL,NULL,BR,NULL,RIO GRANDE DO NORTE,NULL,NULL,NULL,NULL,NULL,NULL
4004,204,BR_120,SAO MIGUEL,NULL,NULL,NULL,-6.21,-38.50,MM,0,0,NULL,NULL,NULL,NULL,NULL,NULL,BR,NULL,RIO GRANDE DO NORTE,NULL,NULL,NULL,NULL,NULL,NULL
4004,205,BR_188,PAU DOS FERROS,NULL,NULL,NULL,-6.11,-38.19,MM,0,0,NULL,NULL,NULL,NULL,NULL,NULL,BR,NULL,CEARA,NULL,NULL,NULL,NULL,NULL,NULL
4004,206,BR_189,IRACEMA,NULL,NULL,NULL,-5.82,-38.30,MM,0,0,NULL,NULL,NULL,NULL,NULL,NULL,BR,NULL,CEARA,NULL,NULL,NULL,NULL,NULL,NULL
4004,207,BR_190,OROS,NULL,NULL,NULL,-6.23,-38.91,MM,0,0,NULL,NULL,NULL,NULL,NULL,NULL,BR,NULL,CEARA,NULL,NULL,NULL,NULL,NULL,NULL
4005,208,BR_191,SERRA DOS MACACOS (SALAO),NULL,NULL,NULL,-6.09,-38.43,MM,7,7,NULL,NULL,NULL,NULL,NULL,NULL,BR,NULL,RIO GRANDE NORTE,NULL,NULL,NULL,NULL,NULL,NULL
4005,209,BR_192,ITAICABA,NULL,NULL,NULL,-4.68,-37.83,MM,0,0,NULL,NULL,NULL,NULL,NULL,NULL,BR,NULL,CEARA,NULL,NULL,NULL,NULL,NULL,NULL
4005,210,BR_193,JAGUARUANA,NULL,NULL,NULL,-4.83,-37.78,MM,0,0,NULL,NULL,NULL,NULL,NULL,NULL,BR,NULL,CEARA,NULL,NULL,NULL,NULL,NULL,NULL
4005,211,BR_194,LIMOEIRO DO NORTE,NULL,NULL,NULL,-5.15,-38.09,MM,0,0,NULL,NULL,NULL,NULL,NULL,NULL,BR,NULL,CEARA,NULL,NULL,NULL,NULL,NULL,NULL
4005,212,BR_195,SENADOR POMPEU,NULL,NULL,NULL,-5.59,-39.27,MM,4,4,NULL,NULL,NULL,NULL,NULL,NULL,BR,NULL,CEARA,NULL,NULL,NULL,NULL,NULL,NULL
4005,213,BR_196,MILHA,NULL,NULL,NULL,-5.68,-39.19,MM,0,0,NULL,NULL,NULL,NULL,NULL,NULL,BR,NULL,CEARA,NULL,NULL,NULL,NULL,NULL,NULL
4005,214,BR_197,POTIREMA,NULL,NULL,NULL,-5.75,-38.20,MM,0,0,NULL,NULL,NULL,NULL,NULL,NULL,BR,NULL,CEARA,NULL,NULL,NULL,NULL,NULL,NULL
4005,215,BR_117,SAO JOSE,NULL,NULL,NULL,-5.82,-38.10,MM,0,0,NULL,NULL,NULL,NULL,NULL,NULL,BR,NULL,RIO GRANDE NORTE,NULL,NULL,NULL,NULL,NULL,NULL
4005,216,BR_198,ITAU,NULL,NULL,NULL,-5.84,-37.99,MM,0,0,NULL,NULL,NULL,NULL,NULL,NULL,BR,NULL,RIO GRANDE NORTE,NULL,NULL,NULL,NULL,NULL,NULL
4005,217,BR_189,IRACEMA,NULL,NULL,NULL,-5.82,-38.29,MM,0,0,NULL,NULL,NULL,NULL,NULL,NULL,BR,NULL,CEARA,NULL,NULL,NULL,NULL,NULL,NULL
4005,218,BR_183,JAGUARIBE,NULL,NULL,NULL,-5.90,-38.59,MM,5,5,NULL,NULL,NULL,NULL,NULL,NULL,BR,NULL,CEARA,NULL,NULL,NULL,NULL,NULL,NULL
4005,219,BR_199,ERERE,NULL,NULL,NULL,-6.03,-38.35,MM,6.5,6.5,NULL,NULL,NULL,NULL,NULL,NULL,BR,NULL,CEARA,NULL,NULL,NULL,NULL,NULL,NULL
4005,220,BR_182,PEREIRO,NULL,NULL,NULL,-6.05,-38.46,MM,7,7,NULL,NULL,NULL,NULL,NULL,NULL,BR,NULL,CEARA,NULL,NULL,NULL,NULL,NULL,NULL
4005,221,BR_120,SAO MIGUEL,NULL,NULL,NULL,-6.21,-38.50,MM,7,7,NULL,NULL,NULL,NULL,NULL,NULL,BR,NULL,RIO GRANDE NORTE,NULL,NULL,NULL,NULL,NULL,NULL
4005,222,BR_200,ACOPIARA,NULL,NULL,NULL,-6.10,-39.46,MM,0,0,NULL,NULL,NULL,NULL,NULL,NULL,BR,NULL,CEARA,NULL,NULL,NULL,NULL,NULL,NULL
4005,223,BR_201,ISIDORO,NULL,NULL,NULL,-6.14,-39.26,MM,0,0,NULL,NULL,NULL,NULL,NULL,NULL,BR,NULL,CEARA,NULL,NULL,NULL,NULL,NULL,NULL
4005,224,BR_190,OROS,NULL,NULL,NULL,-6.25,-38.94,MM,4,4,NULL,NULL,NULL,NULL,NULL,NULL,BR,NULL,CEARA,NULL,NULL,NULL,NULL,NULL,NULL
4005,225,BR_202,JOSE DA PENHA,NULL,NULL,NULL,-6.32,-38.28,MM,0,0,NULL,NULL,NULL,NULL,NULL,NULL,BR,NULL,RIO GRANDE NORTE,NULL,NULL,NULL,NULL,NULL,NULL
4005,226,BR_203,LUIS GOMES,NULL,NULL,NULL,-6.42,-38.43,MM,0,0,NULL,NULL,NULL,NULL,NULL,NULL,BR,NULL,RIO GRANDE NORTE,NULL,NULL,NULL,NULL,NULL,NULL
4005,227,BR_204,ALEXANDRIA,NULL,NULL,NULL,-6.41,-38.01,MM,0,0,NULL,NULL,NULL,NULL,NULL,NULL,BR,NULL,RIO GRANDE NORTE,NULL,NULL,NULL,NULL,NULL,NULL
4005,228,BR_205,POCA DANTAS,NULL,NULL,NULL,-6.43,-38.52,MM,0,0,NULL,NULL,NULL,NULL,NULL,NULL,BR,NULL,RIO GRANDE NORTE,NULL,NULL,NULL,NULL,NULL,NULL
4005,229,BR_206,ICO,NULL,NULL,NULL,-6.40,-38.86,MM,5,5,NULL,NULL,NULL,NULL,NULL,NULL,BR,NULL,CEARA,NULL,NULL,NULL,NULL,NULL,NULL
4005,230,BR_207,CEDRO,NULL,NULL,NULL,-6.60,-39.06,MM,0,0,NULL,NULL,NULL,NULL,NULL,NULL,BR,NULL,CEARA,NULL,NULL,NULL,NULL,NULL,NULL
4005,231,BR_208,BREJO DAS FREIRAS,NULL,NULL,NULL,-6.68,-38.51,MM,0,0,NULL,NULL,NULL,NULL,NULL,NULL,BR,NULL,PARAIBA,NULL,NULL,NULL,NULL,NULL,NULL
4005,232,BR_209,ANTENOR NAVARRO,NULL,NULL,NULL,-6.73,-38.45,MM,5,5,NULL,NULL,NULL,NULL,NULL,NULL,BR,NULL,PARAIBA,NULL,NULL,NULL,NULL,NULL,NULL
4005,233,BR_210,SOUSA,NULL,NULL,NULL,-6.76,-38.23,MM,0,0,NULL,NULL,NULL,NULL,NULL,NULL,BR,NULL,PARAIBA,NULL,NULL,NULL,NULL,NULL,NULL
4005,234,BR_211,POMBAL,NULL,NULL,NULL,-6.77,-37.80,MM,0,0,NULL,NULL,NULL,NULL,NULL,NULL,BR,NULL,PARAIBA,NULL,NULL,NULL,NULL,NULL,NULL
4005,235,BR_212,SAO GONCALO,NULL,NULL,NULL,-6.83,-38.31,MM,0,0,NULL,NULL,NULL,NULL,NULL,NULL,BR,NULL,PARAIBA,NULL,NULL,NULL,NULL,NULL,NULL
4005,236,BR_213,CAJAZEIRAS,NULL,NULL,NULL,-6.89,-38.56,MM,0,0,NULL,NULL,NULL,NULL,NULL,NULL,BR,NULL,PARAIBA,NULL,NULL,NULL,NULL,NULL,NULL
4005,237,BR_214,TIPIS,NULL,NULL,NULL,-6.96,-38.82,MM,0,0,NULL,NULL,NULL,NULL,NULL,NULL,BR,NULL,CEARA,NULL,NULL,NULL,NULL,NULL,NULL
4005,238,BR_215,CRATO,NULL,NULL,NULL,-7.23,-39.41,MM,3,3,NULL,NULL,NULL,NULL,NULL,NULL,BR,NULL,CEARA,NULL,NULL,NULL,NULL,NULL,NULL
4005,239,BR_216,BONITO DE SANTA FE,NULL,NULL,NULL,-7.32,-38.51,MM,0,0,NULL,NULL,NULL,NULL,NULL,NULL,BR,NULL,PARAIBA,NULL,NULL,NULL,NULL,NULL,NULL
4005,240,BR_217,DOUTOR SEVERIANO,NULL,NULL,NULL,-6.09,-38.38,MM,7,7,NULL,NULL,NULL,NULL,NULL,NULL,BR,NULL,RIO GRANDE NORTE,NULL,NULL,NULL,NULL,NULL,NULL
4005,241,BR_187,JARDIM,NULL,NULL,NULL,-6.12,-38.44,MM,6.5,6.5,NULL,NULL,NULL,NULL,NULL,NULL,BR,NULL,RIO GRANDE NORTE,NULL,NULL,NULL,NULL,NULL,NULL
4005,242,BR_218,JUNCO,NULL,NULL,NULL,-6.10,-38.44,MM,7,7,NULL,NULL,NULL,NULL,NULL,NULL,BR,NULL,RIO GRANDE NORTE,NULL,NULL,NULL,NULL,NULL,NULL
4005,243,BR_219,JUREMA,NULL,NULL,NULL,-6.10,-38.42,MM,6.5,6.5,NULL,NULL,NULL,NULL,NULL,NULL,BR,NULL,RIO GRANDE NORTE,NULL,NULL,NULL,NULL,NULL,NULL
4005,244,BR_220,FRADE,NULL,NULL,NULL,-6.08,-38.42,MM,6.5,6.5,NULL,NULL,NULL,NULL,NULL,NULL,BR,NULL,RIO GRANDE NORTE,NULL,NULL,NULL,NULL,NULL,NULL
4005,245,BR_221,CIDADE,NULL,NULL,NULL,-6.11,-38.46,MM,0,0,NULL,NULL,NULL,NULL,NULL,NULL,BR,NULL,RIO GRANDE NORTE,NULL,NULL,NULL,NULL,NULL,NULL
4005,246,BR_222,TORROES,NULL,NULL,NULL,-6.14,-38.46,MM,0,0,NULL,NULL,NULL,NULL,NULL,NULL,BR,NULL,RIO GRANDE NORTE,NULL,NULL,NULL,NULL,NULL,NULL
4005,247,BR_186,LAGOA DE DENTRO,NULL,NULL,NULL,-6.14,-38.45,MM,0,0,NULL,NULL,NULL,NULL,NULL,NULL,BR,NULL,RIO GRANDE DO NORTE,NULL,NULL,NULL,NULL,NULL,NULL
4005,248,BR_223,GUARDADO,NULL,NULL,NULL,-6.13,-38.40,MM,0,0,NULL,NULL,NULL,NULL,NULL,NULL,BR,NULL,RIO GRANDE DO NORTE,NULL,NULL,NULL,NULL,NULL,NULL
4005,249,BR_224,FAZENDA,NULL,NULL,NULL,-6.12,-38.43,MM,0,0,NULL,NULL,NULL,NULL,NULL,NULL,BR,NULL,RIO GRANDE DO NORTE,NULL,NULL,NULL,NULL,NULL,NULL
4005,250,BR_185,MEREJO,NULL,NULL,NULL,-6.12,-38.40,MM,0,0,NULL,NULL,NULL,NULL,NULL,NULL,BR,NULL,RIO GRANDE DO NORTE,NULL,NULL,NULL,NULL,NULL,NULL
4005,251,BR_225,TRAPIA,NULL,NULL,NULL,-6.11,-38.41,MM,0,0,NULL,NULL,NULL,NULL,NULL,NULL,BR,NULL,RIO GRANDE DO NORTE,NULL,NULL,NULL,NULL,NULL,NULL
4005,252,BR_226,MENDES,NULL,NULL,NULL,-6.10,-38.39,MM,0,0,NULL,NULL,NULL,NULL,NULL,NULL,BR,NULL,RIO GRANDE DO NORTE,NULL,NULL,NULL,NULL,NULL,NULL
4005,253,BR_227,LAGOA DO ARROZ,NULL,NULL,NULL,-6.08,-38.41,MM,0,0,NULL,NULL,NULL,NULL,NULL,NULL,BR,NULL,RIO GRANDE DO NORTE,NULL,NULL,NULL,NULL,NULL,NULL
4005,254,BR_228,BAIXAS,NULL,NULL,NULL,-6.07,-38.43,MM,0,0,NULL,NULL,NULL,NULL,NULL,NULL,BR,NULL,RIO GRANDE DO NORTE,NULL,NULL,NULL,NULL,NULL,NULL
4005,255,BR_229,BONSUCESSO,NULL,NULL,NULL,-6.06,-38.42,MM,0,0,NULL,NULL,NULL,NULL,NULL,NULL,BR,NULL,RIO GRANDE DO NORTE,NULL,NULL,NULL,NULL,NULL,NULL
4005,256,BR_230,CONCEICAO,NULL,NULL,NULL,-6.10,-38.46,MM,0,0,NULL,NULL,NULL,NULL,NULL,NULL,BR,NULL,CEARA,NULL,NULL,NULL,NULL,NULL,NULL
4005,257,BR_231,ACUDE NOVO,NULL,NULL,NULL,-6.09,-38.48,MM,0,0,NULL,NULL,NULL,NULL,NULL,NULL,BR,NULL,CEARA,NULL,NULL,NULL,NULL,NULL,NULL
4005,258,BR_232,TOME VIEIRA,NULL,NULL,NULL,-6.07,-38.46,MM,0,0,NULL,NULL,NULL,NULL,NULL,NULL,BR,NULL,CEARA,NULL,NULL,NULL,NULL,NULL,NULL
4005,259,BR_188,PAU DOS FERROS,NULL,NULL,NULL,-6.11,-38.19,MM,4,4,NULL,NULL,NULL,NULL,NULL,NULL,BR,NULL,CEARA,NULL,NULL,NULL,NULL,NULL,NULL
4005,260,BR_233,UIRAUNA,NULL,NULL,NULL,-6.53,-38.45,MM,4,4,NULL,NULL,NULL,NULL,NULL,NULL,BR,NULL,PARAIBA,NULL,NULL,NULL,NULL,NULL,NULL
4005,261,BR_234,FURA,NULL,NULL,NULL,-5.80,-38.38,MM,0,0,NULL,NULL,NULL,NULL,NULL,NULL,BR,NULL,CEARA,NULL,NULL,NULL,NULL,NULL,NULL
4005,262,BR_235,TABULEIRO DO NORTE,NULL,NULL,NULL,-5.28,-38.17,MM,0,0,NULL,NULL,NULL,NULL,NULL,NULL,BR,NULL,CEARA,NULL,NULL,NULL,NULL,NULL,NULL
4006,263,BR_236,CAMPOS,NULL,NULL,NULL,-21.76,-41.32,MM,5,5,NULL,NULL,NULL,NULL,NULL,NULL,BR,NULL,RIO DE JANEIRO,NULL,NULL,NULL,NULL,NULL,NULL
4006,264,BR_157,COLATINA,NULL,NULL,NULL,-19.54,-40.62,MM,3,3,NULL,NULL,NULL,NULL,NULL,NULL,BR,NULL,ESPIRITO SANTO,NULL,NULL,NULL,NULL,NULL,NULL
4006,265,BR_160,JOAO NEIVA,NULL,NULL,NULL,-19.76,-40.40,MM,2,2,NULL,NULL,NULL,NULL,NULL,NULL,BR,NULL,ESPIRITO SANTO,NULL,NULL,NULL,NULL,NULL,NULL
4006,266,BR_166,VITORIA,NULL,NULL,NULL,-20.31,-40.32,MM,4.5,4.5,NULL,NULL,NULL,NULL,NULL,NULL,BR,NULL,ESPIRITO SANTO,NULL,NULL,NULL,NULL,NULL,NULL
4006,267,BR_159,GUARAPARI,NULL,NULL,NULL,-20.67,-40.51,MM,4,4,NULL,NULL,NULL,NULL,NULL,NULL,BR,NULL,ESPIRITO SANTO,NULL,NULL,NULL,NULL,NULL,NULL
4006,268,BR_237,CARANGOLA,NULL,NULL,NULL,-20.72,-42.03,MM,3,3,NULL,NULL,NULL,NULL,NULL,NULL,BR,NULL,MINAS GERAIS,NULL,NULL,NULL,NULL,NULL,NULL
4006,269,BR_158,CACHOEIRA ITAPEMIRIM,NULL,NULL,NULL,-20.85,-41.09,MM,4.5,4.5,NULL,NULL,NULL,NULL,NULL,NULL,BR,NULL,ESPIRITO SANTO,NULL,NULL,NULL,NULL,NULL,NULL
4006,270,BR_238,MURIAE,NULL,NULL,NULL,-21.13,-42.37,MM,3,3,NULL,NULL,NULL,NULL,NULL,NULL,BR,NULL,MINAS GERAIS,NULL,NULL,NULL,NULL,NULL,NULL
4006,271,BR_239,SAO FIDELIS,NULL,NULL,NULL,-21.65,-41.76,MM,4.5,4.5,NULL,NULL,NULL,NULL,NULL,NULL,BR,NULL,RIO DE JANEIRO,NULL,NULL,NULL,NULL,NULL,NULL
4006,272,BR_240,SAO JOAO DA BARRA,NULL,NULL,NULL,-21.64,-41.05,MM,5,5,NULL,NULL,NULL,NULL,NULL,NULL,BR,NULL,RIO DE JANEIRO,NULL,NULL,NULL,NULL,NULL,NULL
4006,273,BR_241,ALEM PARAIBA,NULL,NULL,NULL,-21.86,-42.68,MM,3,3,NULL,NULL,NULL,NULL,NULL,NULL,BR,NULL,MINAS GERAIS,NULL,NULL,NULL,NULL,NULL,NULL
4006,274,BR_242,CANTAGALO,NULL,NULL,NULL,-21.98,-42.36,MM,4,4,NULL,NULL,NULL,NULL,NULL,NULL,BR,NULL,RIO DE JANEIRO,NULL,NULL,NULL,NULL,NULL,NULL
4006,275,BR_243,MACAE,NULL,NULL,NULL,-22.38,-41.78,MM,4.5,4.5,NULL,NULL,NULL,NULL,NULL,NULL,BR,NULL,RIO DE JANEIRO,NULL,NULL,NULL,NULL,NULL,NULL
4006,276,BR_244,TERESOPOLIS,NULL,NULL,NULL,-22.43,-42.99,MM,3,3,NULL,NULL,NULL,NULL,NULL,NULL,BR,NULL,RIO DE JANEIRO,NULL,NULL,NULL,NULL,NULL,NULL
4006,277,BR_91,PETROPOLIS,NULL,NULL,NULL,-22.52,-43.17,MM,3,3,NULL,NULL,NULL,NULL,NULL,NULL,BR,NULL,RIO DE JANEIRO,NULL,NULL,NULL,NULL,NULL,NULL
4006,278,BR_245,SAO PEDRO DA ALDEIA,NULL,NULL,NULL,-22.84,-42.10,MM,3.5,3.5,NULL,NULL,NULL,NULL,NULL,NULL,BR,NULL,RIO DE JANEIRO,NULL,NULL,NULL,NULL,NULL,NULL
4006,279,BR_246,CABO FRIO,NULL,NULL,NULL,-22.89,-42.02,MM,4.5,4.5,NULL,NULL,NULL,NULL,NULL,NULL,BR,NULL,RIO DE JANEIRO,NULL,NULL,NULL,NULL,NULL,NULL
4006,280,BR_247,NITEROI,NULL,NULL,NULL,-22.90,-43.09,MM,4,4,NULL,NULL,NULL,NULL,NULL,NULL,BR,NULL,RIO DE JANEIRO,NULL,NULL,NULL,NULL,NULL,NULL
4006,281,BR_107,RIO DE JANEIRO,NULL,NULL,NULL,-22.91,-43.22,MM,3,3,NULL,NULL,NULL,NULL,NULL,NULL,BR,NULL,RIO DE JANEIRO,NULL,NULL,NULL,NULL,NULL,NULL
4006,282,BR_248,DOM SILVERIO,NULL,NULL,NULL,-20.15,-42.96,MM,0,0,NULL,NULL,NULL,NULL,NULL,NULL,BR,NULL,MINAS GERAIS,NULL,NULL,NULL,NULL,NULL,NULL
4007,283,BR_249,PARAZINHO,NULL,NULL,NULL,-5.22,-35.84,MM,6,6,NULL,NULL,NULL,NULL,NULL,NULL,BR,NULL,RIO GRANDE NORTE,NULL,NULL,NULL,NULL,NULL,NULL
4007,284,BR_250,JOAO CAMARA,NULL,NULL,NULL,-5.54,-35.81,MM,6,6,NULL,NULL,NULL,NULL,NULL,NULL,BR,NULL,RIO GRANDE NORTE,NULL,NULL,NULL,NULL,NULL,NULL
4007,285,BR_251,PEDRA PRETA,NULL,NULL,NULL,-5.58,-36.10,MM,6,6,NULL,NULL,NULL,NULL,NULL,NULL,BR,NULL,RIO GRANDE NORTE,NULL,NULL,NULL,NULL,NULL,NULL
4007,286,BR_252,SAO BENTO DO NORTE,NULL,NULL,NULL,-5.14,-35.98,MM,0,0,NULL,NULL,NULL,NULL,NULL,NULL,BR,NULL,RIO GRANDE NORTE,NULL,NULL,NULL,NULL,NULL,NULL
4007,287,BR_253,MACAIBA,NULL,NULL,NULL,-5.86,-35.36,MM,0,0,NULL,NULL,NULL,NULL,NULL,NULL,BR,NULL,RIO GRANDE NORTE,NULL,NULL,NULL,NULL,NULL,NULL
4007,288,BR_254,NATAL,NULL,NULL,NULL,-5.78,-35.20,MM,0,0,NULL,NULL,NULL,NULL,NULL,NULL,BR,NULL,RIO GRANDE NORTE,NULL,NULL,NULL,NULL,NULL,NULL
4007,289,BR_255,MACAU,NULL,NULL,NULL,-5.19,-36.48,MM,0,0,NULL,NULL,NULL,NULL,NULL,NULL,BR,NULL,RIO GRANDE NORTE,NULL,NULL,NULL,NULL,NULL,NULL
4008,290,BR_256,CONCEICAO DE ALAGOAS,NULL,NULL,NULL,-19.92,-48.38,MM,0,0,NULL,NULL,NULL,NULL,NULL,NULL,BR,NULL,MINAS GERAIS,NULL,NULL,NULL,NULL,NULL,NULL
4008,291,BR_257,FAZENDA DA BARRA,NULL,NULL,NULL,-20.03,-48.43,MM,6.5,6.5,NULL,NULL,NULL,NULL,NULL,NULL,BR,NULL,MINAS GERAIS,NULL,NULL,NULL,NULL,NULL,NULL
4008,292,BR_258,FAZENDA PARAISO,NULL,NULL,NULL,-20.11,-48.51,MM,6.5,6.5,NULL,NULL,NULL,NULL,NULL,NULL,BR,NULL,MINAS GERAIS,NULL,NULL,NULL,NULL,NULL,NULL
4008,293,BR_259,FAZENDA CONTINENTAL,NULL,NULL,NULL,-20.23,-48.60,MM,6.5,6.5,NULL,NULL,NULL,NULL,NULL,NULL,BR,NULL,SAO PAULO,NULL,NULL,NULL,NULL,NULL,NULL
4008,294,BR_260,GUAIRA,NULL,NULL,NULL,-20.33,-48.31,MM,4,4,NULL,NULL,NULL,NULL,NULL,NULL,BR,NULL,SAO PAULO,NULL,NULL,NULL,NULL,NULL,NULL
4008,295,BR_261,RUFINOPOLIS,NULL,NULL,NULL,-19.74,-48.38,MM,0,0,NULL,NULL,NULL,NULL,NULL,NULL,BR,NULL,MINAS GERAIS,NULL,NULL,NULL,NULL,NULL,NULL
4008,296,BR_262,PIRAJUBA,NULL,NULL,NULL,-19.91,-48.70,MM,0,0,NULL,NULL,NULL,NULL,NULL,NULL,BR,NULL,MINAS GERAIS,NULL,NULL,NULL,NULL,NULL,NULL
4008,297,BR_263,PLANURA,NULL,NULL,NULL,-20.14,-48.70,MM,0,0,NULL,NULL,NULL,NULL,NULL,NULL,BR,NULL,MINAS GERAIS,NULL,NULL,NULL,NULL,NULL,NULL
4008,298,BR_264,FRUTAL,NULL,NULL,NULL,-20.03,-48.94,MM,0,0,NULL,NULL,NULL,NULL,NULL,NULL,BR,NULL,MINAS GERAIS,NULL,NULL,NULL,NULL,NULL,NULL
4008,299,BR_265,PONTE GUMERCINDO PENTEADO,NULL,NULL,NULL,-20.31,-49.13,MM,0,0,NULL,NULL,NULL,NULL,NULL,NULL,BR,NULL,MINAS GERAIS,NULL,NULL,NULL,NULL,NULL,NULL
4008,300,BR_266,COLOMBIA,NULL,NULL,NULL,-20.18,-48.69,MM,0,0,NULL,NULL,NULL,NULL,NULL,NULL,BR,NULL,SAO PAULO,NULL,NULL,NULL,NULL,NULL,NULL
4009,301,BR_267,SERRA DO CUBATAO,NULL,NULL,NULL,-15.45,-50.51,MM,5.5,5.5,NULL,NULL,NULL,NULL,NULL,NULL,BR,NULL,GOIAS,NULL,NULL,NULL,NULL,NULL,NULL
4009,302,BR_268,ITAPIRAPUA,NULL,NULL,NULL,-15.87,-50.61,MM,5,5,NULL,NULL,NULL,NULL,NULL,NULL,BR,NULL,GOIAS,NULL,NULL,NULL,NULL,NULL,NULL
4009,303,BR_269,SAO JOAO,NULL,NULL,NULL,-15.68,-50.57,MM,4,4,NULL,NULL,NULL,NULL,NULL,NULL,BR,NULL,GOIAS,NULL,NULL,NULL,NULL,NULL,NULL
4009,304,BR_270,ARAGUAPAZ,NULL,NULL,NULL,-15.09,-50.64,MM,4,4,NULL,NULL,NULL,NULL,NULL,NULL,BR,NULL,GOIAS,NULL,NULL,NULL,NULL,NULL,NULL
4009,305,BR_271,N JUCARA,NULL,NULL,NULL,-15.67,-50.91,MM,4,4,NULL,NULL,NULL,NULL,NULL,NULL,BR,NULL,GOIAS,NULL,NULL,NULL,NULL,NULL,NULL
4009,306,BR_272,W JEROAQUARA,NULL,NULL,NULL,-15.43,-50.72,MM,4,4,NULL,NULL,NULL,NULL,NULL,NULL,BR,NULL,GOIAS,NULL,NULL,NULL,NULL,NULL,NULL
4009,307,BR_273,FAINA,NULL,NULL,NULL,-15.45,-50.38,MM,5,5,NULL,NULL,NULL,NULL,NULL,NULL,BR,NULL,GOIAS,NULL,NULL,NULL,NULL,NULL,NULL
4009,308,BR_274,JEROAQUARA,NULL,NULL,NULL,-15.38,-50.43,MM,5.5,5.5,NULL,NULL,NULL,NULL,NULL,NULL,BR,NULL,GOIAS,NULL,NULL,NULL,NULL,NULL,NULL
4009,309,BR_275,S JEROAQUARA,NULL,NULL,NULL,-15.43,-50.38,MM,4,4,NULL,NULL,NULL,NULL,NULL,NULL,BR,NULL,GOIAS,NULL,NULL,NULL,NULL,NULL,NULL
4009,310,BR_276,NE JEROAQUARA,NULL,NULL,NULL,-15.34,-50.40,MM,4,4,NULL,NULL,NULL,NULL,NULL,NULL,BR,NULL,GOIAS,NULL,NULL,NULL,NULL,NULL,NULL
4009,311,BR_277,L JEROAQUARA,NULL,NULL,NULL,-15.38,-50.29,MM,5,5,NULL,NULL,NULL,NULL,NULL,NULL,BR,NULL,GOIAS,NULL,NULL,NULL,NULL,NULL,NULL
4009,312,BR_278,SW ARAGUAPAZ,NULL,NULL,NULL,-15.14,-50.71,MM,4.5,4.5,NULL,NULL,NULL,NULL,NULL,NULL,BR,NULL,GOIAS,NULL,NULL,NULL,NULL,NULL,NULL
4009,313,BR_279,L ARUANA,NULL,NULL,NULL,-14.95,-50.93,MM,3.5,3.5,NULL,NULL,NULL,NULL,NULL,NULL,BR,NULL,GOIAS,NULL,NULL,NULL,NULL,NULL,NULL
4010,314,BR_280,PRIMEIRO DE MAIO,NULL,NULL,NULL,-22.85,-51.01,MM,5.5,5.5,NULL,NULL,NULL,NULL,NULL,NULL,BR,NULL,PARANA,NULL,NULL,NULL,NULL,NULL,NULL
4010,315,BR_281,SERTANOPOLIS,NULL,NULL,NULL,-23.06,-51.03,MM,2,2,NULL,NULL,NULL,NULL,NULL,NULL,BR,NULL,PARANA,NULL,NULL,NULL,NULL,NULL,NULL
4010,316,BR_282,VILA GANDHI,NULL,NULL,NULL,-22.95,-51.15,MM,4,4,NULL,NULL,NULL,NULL,NULL,NULL,BR,NULL,PARANA,NULL,NULL,NULL,NULL,NULL,NULL
4010,317,BR_283,IBIACI,NULL,NULL,NULL,-22.93,-51.03,MM,4,4,NULL,NULL,NULL,NULL,NULL,NULL,BR,NULL,PARANA,NULL,NULL,NULL,NULL,NULL,NULL
4010,318,BR_284,IEPE,NULL,NULL,NULL,-22.66,-51.09,MM,2,2,NULL,NULL,NULL,NULL,NULL,NULL,BR,NULL,PARANA,NULL,NULL,NULL,NULL,NULL,NULL
4010,319,BR_285,STA MARGARIDA,NULL,NULL,NULL,-22.96,-51.21,MM,0,0,NULL,NULL,NULL,NULL,NULL,NULL,BR,NULL,PARANA,NULL,NULL,NULL,NULL,NULL,NULL
4010,320,BR_286,BELA VISTA DO PARAISO,NULL,NULL,NULL,-23.00,-51.19,MM,-1,-1,NULL,NULL,NULL,NULL,NULL,NULL,BR,NULL,PARANA,NULL,NULL,NULL,NULL,NULL,NULL
4010,321,BR_287,ALVORADA DO SUL,NULL,NULL,NULL,-22.78,-51.23,MM,-1,-1,NULL,NULL,NULL,NULL,NULL,NULL,BR,NULL,PARANA,NULL,NULL,NULL,NULL,NULL,NULL
4010,322,BR_180,,NULL,NULL,NULL,-22.84,-51.02,MM,5,5,NULL,NULL,NULL,NULL,NULL,NULL,BR,NULL,PARANA,NULL,NULL,NULL,NULL,NULL,NULL
4010,323,BR_180,,NULL,NULL,NULL,-22.83,-51.02,MM,5,5,NULL,NULL,NULL,NULL,NULL,NULL,BR,NULL,PARANA,NULL,NULL,NULL,NULL,NULL,NULL
4010,324,BR_180,,NULL,NULL,NULL,-22.81,-51.03,MM,5,5,NULL,NULL,NULL,NULL,NULL,NULL,BR,NULL,PARANA,NULL,NULL,NULL,NULL,NULL,NULL
4010,325,BR_180,,NULL,NULL,NULL,-22.81,-51.02,MM,5,5,NULL,NULL,NULL,NULL,NULL,NULL,BR,NULL,PARANA,NULL,NULL,NULL,NULL,NULL,NULL
4010,326,BR_180,,NULL,NULL,NULL,-22.80,-51.02,MM,5,5,NULL,NULL,NULL,NULL,NULL,NULL,BR,NULL,PARANA,NULL,NULL,NULL,NULL,NULL,NULL
4010,327,BR_180,,NULL,NULL,NULL,-22.84,-51.08,MM,4,4,NULL,NULL,NULL,NULL,NULL,NULL,BR,NULL,PARANA,NULL,NULL,NULL,NULL,NULL,NULL
4010,328,BR_180,,NULL,NULL,NULL,-22.84,-51.10,MM,4,4,NULL,NULL,NULL,NULL,NULL,NULL,BR,NULL,PARANA,NULL,NULL,NULL,NULL,NULL,NULL
4010,329,BR_180,,NULL,NULL,NULL,-22.91,-51.08,MM,-1,-1,NULL,NULL,NULL,NULL,NULL,NULL,BR,NULL,PARANA,NULL,NULL,NULL,NULL,NULL,NULL
4010,330,BR_180,,NULL,NULL,NULL,-22.96,-50.85,MM,-1,-1,NULL,NULL,NULL,NULL,NULL,NULL,BR,NULL,PARANA,NULL,NULL,NULL,NULL,NULL,NULL
4010,331,BR_180,,NULL,NULL,NULL,-22.88,-50.97,MM,0,0,NULL,NULL,NULL,NULL,NULL,NULL,BR,NULL,PARANA,NULL,NULL,NULL,NULL,NULL,NULL
4010,332,BR_180,,NULL,NULL,NULL,-22.66,-50.93,MM,-1,-1,NULL,NULL,NULL,NULL,NULL,NULL,BR,NULL,SAO PAULO,NULL,NULL,NULL,NULL,NULL,NULL
4010,333,BR_180,,NULL,NULL,NULL,-22.74,-50.97,MM,4,4,NULL,NULL,NULL,NULL,NULL,NULL,BR,NULL,SAO PAULO,NULL,NULL,NULL,NULL,NULL,NULL
4010,334,BR_288,FLORINEA,NULL,NULL,NULL,-22.90,-50.74,MM,-1,-1,NULL,NULL,NULL,NULL,NULL,NULL,BR,NULL,SAO PAULO,NULL,NULL,NULL,NULL,NULL,NULL
4010,335,BR_289,GARDENIA,NULL,NULL,NULL,-22.63,-50.90,MM,-1,-1,NULL,NULL,NULL,NULL,NULL,NULL,BR,NULL,SAO PAULO,NULL,NULL,NULL,NULL,NULL,NULL
4011,336,BR_290,RUBIATABA,NULL,NULL,NULL,-15.17,-49.81,MM,4,4,NULL,NULL,NULL,NULL,NULL,NULL,BR,NULL,GOIANIA,NULL,NULL,NULL,NULL,NULL,NULL
4011,337,BR_291,BRAGOLANDIA,NULL,NULL,NULL,-15.25,-49.79,MM,4,4,NULL,NULL,NULL,NULL,NULL,NULL,BR,NULL,GOIANIA,NULL,NULL,NULL,NULL,NULL,NULL
4011,338,BR_292,CRUZEIRINHO,NULL,NULL,NULL,-15.18,-49.98,MM,4,4,NULL,NULL,NULL,NULL,NULL,NULL,BR,NULL,GOIANIA,NULL,NULL,NULL,NULL,NULL,NULL
4011,339,BR_293,VALDELADIA,NULL,NULL,NULL,-15.18,-50.07,MM,4,4,NULL,NULL,NULL,NULL,NULL,NULL,BR,NULL,GOIANIA,NULL,NULL,NULL,NULL,NULL,NULL
4011,340,BR_294,S. PATRICIO,NULL,NULL,NULL,-15.37,-49.83,MM,4,4,NULL,NULL,NULL,NULL,NULL,NULL,BR,NULL,GOIANIA,NULL,NULL,NULL,NULL,NULL,NULL
4011,341,BR_295,S. J. DA FAZENDINHA,NULL,NULL,NULL,-15.2,-50.26,MM,2,2,NULL,NULL,NULL,NULL,NULL,NULL,BR,NULL,GOIANIA,NULL,NULL,NULL,NULL,NULL,NULL
4011,342,BR_296,ITAPURANGA,NULL,NULL,NULL,-15.55,-49.94,MM,-1,-1,NULL,NULL,NULL,NULL,NULL,NULL,BR,NULL,GOIANIA,NULL,NULL,NULL,NULL,NULL,NULL
4011,343,BR_297,CARMO DO RIO VERDE,NULL,NULL,NULL,-15.35,-49.71,MM,-1,-1,NULL,NULL,NULL,NULL,NULL,NULL,BR,NULL,GOIANIA,NULL,NULL,NULL,NULL,NULL,NULL
4011,344,BR_298,RIALMA,NULL,NULL,NULL,-15.31,-49.58,MM,-1,-1,NULL,NULL,NULL,NULL,NULL,NULL,BR,NULL,GOIANIA,NULL,NULL,NULL,NULL,NULL,NULL
4011,345,BR_299,CERES,NULL,NULL,NULL,-15.31,-49.6,MM,-1,-1,NULL,NULL,NULL,NULL,NULL,NULL,BR,NULL,GOIANIA,NULL,NULL,NULL,NULL,NULL,NULL
4011,346,BR_274,JEROAQUARA,NULL,NULL,NULL,-15.37,-50.5,MM,0,0,NULL,NULL,NULL,NULL,NULL,NULL,BR,NULL,GOIANIA,NULL,NULL,NULL,NULL,NULL,NULL
4011,347,BR_300,CRUZELANDIA (M AGUDO),NULL,NULL,NULL,-15.32,-50.06,MM,0,0,NULL,NULL,NULL,NULL,NULL,NULL,BR,NULL,GOIANIA,NULL,NULL,NULL,NULL,NULL,NULL
4011,348,BR_301,DIOLANDIA,NULL,NULL,NULL,-15.41,-50.03,MM,-1,-1,NULL,NULL,NULL,NULL,NULL,NULL,BR,NULL,GOIANIA,NULL,NULL,NULL,NULL,NULL,NULL
4012,349,BR_302,CHOROZINHO,NULL,NULL,NULL,-4.30,-38.40,MM,7,7,NULL,NULL,NULL,NULL,NULL,NULL,BR,NULL,CEARA,NULL,NULL,NULL,NULL,NULL,NULL
4012,350,BR_303,CAUCAIA,NULL,NULL,NULL,-3.73,-38.65,MM,3,3,NULL,NULL,NULL,NULL,NULL,NULL,BR,NULL,CEARA,NULL,NULL,NULL,NULL,NULL,NULL
4012,351,BR_304,FORTALEZA,NULL,NULL,NULL,-3.74,-38.55,MM,5,5,NULL,NULL,NULL,NULL,NULL,NULL,BR,NULL,CEARA,NULL,NULL,NULL,NULL,NULL,NULL
4012,352,BR_305,CASCAVEL,NULL,NULL,NULL,-4.13,-38.24,MM,6,6,NULL,NULL,NULL,NULL,NULL,NULL,BR,NULL,CEARA,NULL,NULL,NULL,NULL,NULL,NULL
4012,353,BR_306,QUIXANDA,NULL,NULL,NULL,-4.98,-39.02,MM,5,5,NULL,NULL,NULL,NULL,NULL,NULL,BR,NULL,CEARA,NULL,NULL,NULL,NULL,NULL,NULL
4012,354,BR_307,QUIXERAMOBIM,NULL,NULL,NULL,-5.20,-39.30,MM,4,4,NULL,NULL,NULL,NULL,NULL,NULL,BR,NULL,CEARA,NULL,NULL,NULL,NULL,NULL,NULL
4012,355,BR_308,SEN. POMPEU,NULL,NULL,NULL,-5.59,-39.37,MM,3,3,NULL,NULL,NULL,NULL,NULL,NULL,BR,NULL,CEARA,NULL,NULL,NULL,NULL,NULL,NULL
4012,356,BR_309,PIQUET CARNEIRO,NULL,NULL,NULL,-5.81,-39.42,MM,3,3,NULL,NULL,NULL,NULL,NULL,NULL,BR,NULL,CEARA,NULL,NULL,NULL,NULL,NULL,NULL
4012,357,BR_310,IGUATU,NULL,NULL,NULL,-6.36,-39.28,MM,4,4,NULL,NULL,NULL,NULL,NULL,NULL,BR,NULL,CEARA,NULL,NULL,NULL,NULL,NULL,NULL
4012,358,BR_182,PEREIRO,NULL,NULL,NULL,-6.04,-38.46,MM,3,3,NULL,NULL,NULL,NULL,NULL,NULL,BR,NULL,CEARA,NULL,NULL,NULL,NULL,NULL,NULL
4012,359,BR_215,CRATO,NULL,NULL,NULL,-7.23,-39.41,MM,3,3,NULL,NULL,NULL,NULL,NULL,NULL,BR,NULL,CEARA,NULL,NULL,NULL,NULL,NULL,NULL
4012,360,BR_311,TEREZINHA,NULL,NULL,NULL,-5.25,-42.58,MM,5,5,NULL,NULL,NULL,NULL,NULL,NULL,BR,NULL,CEARA,NULL,NULL,NULL,NULL,NULL,NULL
4012,361,BR_180,,NULL,NULL,NULL,-4.35,-38.64,MM,5,5,NULL,NULL,NULL,NULL,NULL,NULL,BR,NULL,CEARA,NULL,NULL,NULL,NULL,NULL,NULL
4012,362,BR_180,,NULL,NULL,NULL,-4.40,-38.77,MM,5,5,NULL,NULL,NULL,NULL,NULL,NULL,BR,NULL,CEARA,NULL,NULL,NULL,NULL,NULL,NULL
4012,363,BR_180,,NULL,NULL,NULL,-4.55,-38.79,MM,5,5,NULL,NULL,NULL,NULL,NULL,NULL,BR,NULL,CEARA,NULL,NULL,NULL,NULL,NULL,NULL
4012,364,BR_180,,NULL,NULL,NULL,-4.69,-38.85,MM,5,5,NULL,NULL,NULL,NULL,NULL,NULL,BR,NULL,CEARA,NULL,NULL,NULL,NULL,NULL,NULL
4012,365,BR_180,,NULL,NULL,NULL,-4.63,-37.71,MM,4,4,NULL,NULL,NULL,NULL,NULL,NULL,BR,NULL,CEARA,NULL,NULL,NULL,NULL,NULL,NULL
4012,366,BR_180,,NULL,NULL,NULL,-5.21,-37.99,MM,4,4,NULL,NULL,NULL,NULL,NULL,NULL,BR,NULL,CEARA,NULL,NULL,NULL,NULL,NULL,NULL
4012,367,BR_180,,NULL,NULL,NULL,-5.40,-38.08,MM,4,4,NULL,NULL,NULL,NULL,NULL,NULL,BR,NULL,CEARA,NULL,NULL,NULL,NULL,NULL,NULL
4012,368,BR_180,,NULL,NULL,NULL,-5.19,-38.30,MM,4,4,NULL,NULL,NULL,NULL,NULL,NULL,BR,NULL,CEARA,NULL,NULL,NULL,NULL,NULL,NULL
4012,369,BR_180,,NULL,NULL,NULL,-5.00,-37.92,MM,4,4,NULL,NULL,NULL,NULL,NULL,NULL,BR,NULL,CEARA,NULL,NULL,NULL,NULL,NULL,NULL
4012,370,BR_312,RECIFE,NULL,NULL,NULL,-8.04,-34.90,MM,3,3,NULL,NULL,NULL,NULL,NULL,NULL,BR,NULL,PERNAMBUCO,NULL,NULL,NULL,NULL,NULL,NULL
4012,371,BR_313,MACEIO,NULL,NULL,NULL,-9.66,-35.74,MM,3,3,NULL,NULL,NULL,NULL,NULL,NULL,BR,NULL,ALAGOAS,NULL,NULL,NULL,NULL,NULL,NULL
4013,372,BR_314,ASUNCION,NULL,NULL,NULL,-25.30,-57.63,MM,6,6,NULL,NULL,NULL,NULL,NULL,NULL,BR,NULL,ASUNCION,NULL,NULL,NULL,NULL,NULL,NULL
4013,373,BR_315,TOBATI,NULL,NULL,NULL,-25.26,-57.32,MM,5,5,NULL,NULL,NULL,NULL,NULL,NULL,BR,NULL,TOBATI,NULL,NULL,NULL,NULL,NULL,NULL
4013,374,BR_316,CAACUPE,NULL,NULL,NULL,-25.39,-57.14,MM,5,5,NULL,NULL,NULL,NULL,NULL,NULL,BR,NULL,CAACUPE,NULL,NULL,NULL,NULL,NULL,NULL
4013,375,BR_317,CURUGUATY,NULL,NULL,NULL,-24.47,-55.69,MM,4,4,NULL,NULL,NULL,NULL,NULL,NULL,BR,NULL,CURUGUATY,NULL,NULL,NULL,NULL,NULL,NULL
4013,376,BR_318,CONCEPCION,NULL,NULL,NULL,-23.4,-57.44,MM,4,4,NULL,NULL,NULL,NULL,NULL,NULL,BR,NULL,CONCEPCION,NULL,NULL,NULL,NULL,NULL,NULL
4013,377,BR_319,PILAR,NULL,NULL,NULL,-26.87,-58.3,MM,1,1,NULL,NULL,NULL,NULL,NULL,NULL,BR,NULL,PILAR,NULL,NULL,NULL,NULL,NULL,NULL
4013,378,BR_260,GUAIRA,NULL,NULL,NULL,-24.08,-54.25,MM,1,1,NULL,NULL,NULL,NULL,NULL,NULL,BR,NULL,PARANA,NULL,NULL,NULL,NULL,NULL,NULL
4013,379,BR_320,GUIINDY,NULL,NULL,NULL,-25.97,-57.23,MM,0,0,NULL,NULL,NULL,NULL,NULL,NULL,BR,NULL,QUIINDY,NULL,NULL,NULL,NULL,NULL,NULL
4013,380,BR_321,SAN ESTANISLAO,NULL,NULL,NULL,-24.67,-56.45,MM,0,0,NULL,NULL,NULL,NULL,NULL,NULL,BR,NULL,SAN ESTANISLAO,NULL,NULL,NULL,NULL,NULL,NULL
4013,381,BR_322,PONTA PORA,NULL,NULL,NULL,-22.54,-55.73,MM,0,0,NULL,NULL,NULL,NULL,NULL,NULL,BR,NULL,MATO GROSSO DO SUL,NULL,NULL,NULL,NULL,NULL,NULL
4013,382,BR_323,ITAIPU,NULL,NULL,NULL,-25.46,-54.56,MM,0,0,NULL,NULL,NULL,NULL,NULL,NULL,BR,NULL,PARANA,NULL,NULL,NULL,NULL,NULL,NULL
4014,383,BR_324,LABREA,NULL,NULL,NULL,-7.30,-64.76,MM,3,3,NULL,NULL,NULL,NULL,NULL,NULL,BR,NULL,AMAZONAS,NULL,NULL,NULL,NULL,NULL,NULL
4014,384,BR_325,HUMAITA,NULL,NULL,NULL,-7.52,-63.03,MM,3.5,3.5,NULL,NULL,NULL,NULL,NULL,NULL,BR,NULL,AMAZONAS,NULL,NULL,NULL,NULL,NULL,NULL
4014,385,BR_326,MANICORE,NULL,NULL,NULL,-5.85,-61.26,MM,4,4,NULL,NULL,NULL,NULL,NULL,NULL,BR,NULL,AMAZONAS,NULL,NULL,NULL,NULL,NULL,NULL
4014,386,BR_327,BORBA,NULL,NULL,NULL,-4.65,-59.47,MM,2,2,NULL,NULL,NULL,NULL,NULL,NULL,BR,NULL,AMAZONAS,NULL,NULL,NULL,NULL,NULL,NULL
4014,387,BR_328,CAREIRO CASTANHO,NULL,NULL,NULL,-3.77,-60.37,MM,4,4,NULL,NULL,NULL,NULL,NULL,NULL,BR,NULL,AMAZONAS,NULL,NULL,NULL,NULL,NULL,NULL
4014,388,BR_329,AUTAZES,NULL,NULL,NULL,-3.58,-59.13,MM,2,2,NULL,NULL,NULL,NULL,NULL,NULL,BR,NULL,AMAZONAS,NULL,NULL,NULL,NULL,NULL,NULL
4014,389,BR_330,MANAUS,NULL,NULL,NULL,-2.91,-59.26,MM,2.5,2.5,NULL,NULL,NULL,NULL,NULL,NULL,BR,NULL,AMAZONAS,NULL,NULL,NULL,NULL,NULL,NULL
4014,390,BR_331,PRES. FIGUEIREDO,NULL,NULL,NULL,-1.45,-60.03,MM,4,4,NULL,NULL,NULL,NULL,NULL,NULL,BR,NULL,AMAZONAS,NULL,NULL,NULL,NULL,NULL,NULL
4014,391,BR_332,BALBINA,NULL,NULL,NULL,-1.92,-59.49,MM,3.5,3.5,NULL,NULL,NULL,NULL,NULL,NULL,BR,NULL,AMAZONAS,NULL,NULL,NULL,NULL,NULL,NULL
4014,392,BR_333,MANACAPURU,NULL,NULL,NULL,-3.29,-60.63,MM,5,5,NULL,NULL,NULL,NULL,NULL,NULL,BR,NULL,AMAZONAS,NULL,NULL,NULL,NULL,NULL,NULL
4014,393,BR_334,CAAPIRANGA,NULL,NULL,NULL,-3.33,-61.21,MM,4,4,NULL,NULL,NULL,NULL,NULL,NULL,BR,NULL,AMAZONAS,NULL,NULL,NULL,NULL,NULL,NULL
4014,394,BR_335,ANAMA,NULL,NULL,NULL,-3.57,-61.40,MM,5,5,NULL,NULL,NULL,NULL,NULL,NULL,BR,NULL,AMAZONAS,NULL,NULL,NULL,NULL,NULL,NULL
4014,395,BR_336,ANORI,NULL,NULL,NULL,-3.75,-61.66,MM,6,6,NULL,NULL,NULL,NULL,NULL,NULL,BR,NULL,AMAZONAS,NULL,NULL,NULL,NULL,NULL,NULL
4014,396,BR_337,BERURI,NULL,NULL,NULL,-3.9,-61.38,MM,5.5,5.5,NULL,NULL,NULL,NULL,NULL,NULL,BR,NULL,AMAZONAS,NULL,NULL,NULL,NULL,NULL,NULL
4014,397,BR_338,CODAJAS,NULL,NULL,NULL,-3.84,-62.06,MM,7,7,NULL,NULL,NULL,NULL,NULL,NULL,BR,NULL,AMAZONAS,NULL,NULL,NULL,NULL,NULL,NULL
4014,398,BR_339,COARI,NULL,NULL,NULL,-4.09,-63.15,MM,5,5,NULL,NULL,NULL,NULL,NULL,NULL,BR,NULL,AMAZONAS,NULL,NULL,NULL,NULL,NULL,NULL
4014,399,BR_340,TEFE,NULL,NULL,NULL,-3.37,-64.72,MM,3,3,NULL,NULL,NULL,NULL,NULL,NULL,BR,NULL,AMAZONAS,NULL,NULL,NULL,NULL,NULL,NULL
4014,400,BR_341,CARAUARI,NULL,NULL,NULL,-4.88,-66.9,MM,2,2,NULL,NULL,NULL,NULL,NULL,NULL,BR,NULL,AMAZONAS,NULL,NULL,NULL,NULL,NULL,NULL
4014,401,BR_342,BARCELOS,NULL,NULL,NULL,-0.97,-62.93,MM,2.5,2.5,NULL,NULL,NULL,NULL,NULL,NULL,BR,NULL,AMAZONAS,NULL,NULL,NULL,NULL,NULL,NULL
4014,402,BR_343,DEMOCRACIA,NULL,NULL,NULL,-5.74,-61.44,MM,4,4,NULL,NULL,NULL,NULL,NULL,NULL,BR,NULL,AMAZONAS,NULL,NULL,NULL,NULL,NULL,NULL
4014,403,BR_344,NOVO AIRAO,NULL,NULL,NULL,-1.95,-61.36,MM,5,5,NULL,NULL,NULL,NULL,NULL,NULL,BR,NULL,AMAZONAS,NULL,NULL,NULL,NULL,NULL,NULL
4014,404,BR_345,NOVO ARIPUANA,NULL,NULL,NULL,-5.12,-60.23,MM,5,5,NULL,NULL,NULL,NULL,NULL,NULL,BR,NULL,AMAZONAS,NULL,NULL,NULL,NULL,NULL,NULL
4014,405,BR_180,,NULL,NULL,NULL,-5.15,-60.39,MM,4,4,NULL,NULL,NULL,NULL,NULL,NULL,BR,NULL,AMAZONAS,NULL,NULL,NULL,NULL,NULL,NULL
4014,406,BR_180,,NULL,NULL,NULL,-5.21,-61.85,MM,4,4,NULL,NULL,NULL,NULL,NULL,NULL,BR,NULL,AMAZONAS,NULL,NULL,NULL,NULL,NULL,NULL
4014,407,BR_180,,NULL,NULL,NULL,-4.97,-61.65,MM,4,4,NULL,NULL,NULL,NULL,NULL,NULL,BR,NULL,AMAZONAS,NULL,NULL,NULL,NULL,NULL,NULL
4014,408,BR_180,,NULL,NULL,NULL,-4.70,-61.34,MM,4,4,NULL,NULL,NULL,NULL,NULL,NULL,BR,NULL,AMAZONAS,NULL,NULL,NULL,NULL,NULL,NULL
4014,409,BR_180,,NULL,NULL,NULL,-4.21,-60.84,MM,4,4,NULL,NULL,NULL,NULL,NULL,NULL,BR,NULL,AMAZONAS,NULL,NULL,NULL,NULL,NULL,NULL
4014,410,BR_180,,NULL,NULL,NULL,-4.01,-60.67,MM,4,4,NULL,NULL,NULL,NULL,NULL,NULL,BR,NULL,AMAZONAS,NULL,NULL,NULL,NULL,NULL,NULL
4014,411,BR_180,,NULL,NULL,NULL,-3.79,-60.49,MM,5,5,NULL,NULL,NULL,NULL,NULL,NULL,BR,NULL,AMAZONAS,NULL,NULL,NULL,NULL,NULL,NULL
4014,412,BR_180,,NULL,NULL,NULL,-3.46,-60.07,MM,3.5,3.5,NULL,NULL,NULL,NULL,NULL,NULL,BR,NULL,AMAZONAS,NULL,NULL,NULL,NULL,NULL,NULL
4014,413,BR_180,,NULL,NULL,NULL,-3.13,-60.13,MM,4,4,NULL,NULL,NULL,NULL,NULL,NULL,BR,NULL,AMAZONAS,NULL,NULL,NULL,NULL,NULL,NULL
4014,414,BR_180,,NULL,NULL,NULL,-3.18,-60.38,MM,4,4,NULL,NULL,NULL,NULL,NULL,NULL,BR,NULL,AMAZONAS,NULL,NULL,NULL,NULL,NULL,NULL
4014,415,BR_180,,NULL,NULL,NULL,-3.03,-60.07,MM,4,4,NULL,NULL,NULL,NULL,NULL,NULL,BR,NULL,AMAZONAS,NULL,NULL,NULL,NULL,NULL,NULL
4014,416,BR_180,,NULL,NULL,NULL,-3.06,-59.91,MM,5,5,NULL,NULL,NULL,NULL,NULL,NULL,BR,NULL,AMAZONAS,NULL,NULL,NULL,NULL,NULL,NULL
4014,417,BR_180,,NULL,NULL,NULL,-2.80,-60.05,MM,4,4,NULL,NULL,NULL,NULL,NULL,NULL,BR,NULL,AMAZONAS,NULL,NULL,NULL,NULL,NULL,NULL
4014,418,BR_180,,NULL,NULL,NULL,-2.60,-60.03,MM,4.5,4.5,NULL,NULL,NULL,NULL,NULL,NULL,BR,NULL,AMAZONAS,NULL,NULL,NULL,NULL,NULL,NULL
4014,419,BR_180,,NULL,NULL,NULL,-2.33,-60.02,MM,4.5,4.5,NULL,NULL,NULL,NULL,NULL,NULL,BR,NULL,AMAZONAS,NULL,NULL,NULL,NULL,NULL,NULL
4014,420,BR_180,,NULL,NULL,NULL,-2.04,-60.06,MM,4,4,NULL,NULL,NULL,NULL,NULL,NULL,BR,NULL,AMAZONAS,NULL,NULL,NULL,NULL,NULL,NULL
4014,421,BR_180,,NULL,NULL,NULL,-1.99,-59.88,MM,3.5,3.5,NULL,NULL,NULL,NULL,NULL,NULL,BR,NULL,AMAZONAS,NULL,NULL,NULL,NULL,NULL,NULL
4014,422,BR_180,,NULL,NULL,NULL,-1.82,-60.18,MM,4.5,4.5,NULL,NULL,NULL,NULL,NULL,NULL,BR,NULL,AMAZONAS,NULL,NULL,NULL,NULL,NULL,NULL
4014,423,BR_180,,NULL,NULL,NULL,-1.66,-60.32,MM,4.5,4.5,NULL,NULL,NULL,NULL,NULL,NULL,BR,NULL,AMAZONAS,NULL,NULL,NULL,NULL,NULL,NULL
4014,424,BR_180,,NULL,NULL,NULL,-1.49,-60.39,MM,3.5,3.5,NULL,NULL,NULL,NULL,NULL,NULL,BR,NULL,AMAZONAS,NULL,NULL,NULL,NULL,NULL,NULL
4014,425,BR_180,,NULL,NULL,NULL,-5.59,-62.21,MM,-1,-1,NULL,NULL,NULL,NULL,NULL,NULL,BR,NULL,AMAZONAS,NULL,NULL,NULL,NULL,NULL,NULL
4014,426,BR_180,,NULL,NULL,NULL,-6.46,-62.89,MM,-1,-1,NULL,NULL,NULL,NULL,NULL,NULL,BR,NULL,AMAZONAS,NULL,NULL,NULL,NULL,NULL,NULL
4014,427,BR_180,,NULL,NULL,NULL,-2.95,-59.00,MM,0,0,NULL,NULL,NULL,NULL,NULL,NULL,BR,NULL,AMAZONAS,NULL,NULL,NULL,NULL,NULL,NULL
4014,428,BR_346,ITACOATIARA,NULL,NULL,NULL,-3.12,-58.44,MM,0,0,NULL,NULL,NULL,NULL,NULL,NULL,BR,NULL,AMAZONAS,NULL,NULL,NULL,NULL,NULL,NULL
4014,429,BR_347,NOVA OLINDA DO NORTE,NULL,NULL,NULL,-3.79,-58.97,MM,0,0,NULL,NULL,NULL,NULL,NULL,NULL,BR,NULL,AMAZONAS,NULL,NULL,NULL,NULL,NULL,NULL
4014,430,BR_348,PORTO VELHO,NULL,NULL,NULL,-8.84,-63.78,MM,0,0,NULL,NULL,NULL,NULL,NULL,NULL,BR,NULL,AMAZONAS,NULL,NULL,NULL,NULL,NULL,NULL
4014,431,BR_349,ALVARAES,NULL,NULL,NULL,-3.17,-64.80,MM,0,0,NULL,NULL,NULL,NULL,NULL,NULL,BR,NULL,AMAZONAS,NULL,NULL,NULL,NULL,NULL,NULL
4015,432,BR_250,JOAO CAMARA,NULL,NULL,NULL,-5.535,-35.815,MM,5.5,5.5,NULL,NULL,NULL,NULL,NULL,NULL,BR,NULL,RIO GRANDE NORTE,NULL,NULL,NULL,NULL,NULL,NULL
4015,433,BR_350,MATAO TOMAS,NULL,NULL,NULL,-5.535,-35.732,MM,4.5,4.5,NULL,NULL,NULL,NULL,NULL,NULL,BR,NULL,RIO GRANDE NORTE,NULL,NULL,NULL,NULL,NULL,NULL
4015,434,BR_351,BAIXA SAO MIGUEL,NULL,NULL,NULL,-5.525,-35.7,MM,3.5,3.5,NULL,NULL,NULL,NULL,NULL,NULL,BR,NULL,RIO GRANDE NORTE,NULL,NULL,NULL,NULL,NULL,NULL
4015,435,BR_352,SUL MATAO TOMAS,NULL,NULL,NULL,-5.56,-35.73,MM,4,4,NULL,NULL,NULL,NULL,NULL,NULL,BR,NULL,RIO GRANDE NORTE,NULL,NULL,NULL,NULL,NULL,NULL
4015,436,BR_353,SUL JOAO CAMARA,NULL,NULL,NULL,-5.555,-35.818,MM,4,4,NULL,NULL,NULL,NULL,NULL,NULL,BR,NULL,RIO GRANDE NORTE,NULL,NULL,NULL,NULL,NULL,NULL
4015,437,BR_354,SAO FRANCISCO,NULL,NULL,NULL,-5.532,-35.989,MM,3.5,3.5,NULL,NULL,NULL,NULL,NULL,NULL,BR,NULL,RIO GRANDE NORTE,NULL,NULL,NULL,NULL,NULL,NULL
4015,438,BR_355,NE JOAO CAMARA,NULL,NULL,NULL,-5.517,-35.765,MM,4,4,NULL,NULL,NULL,NULL,NULL,NULL,BR,NULL,RIO GRANDE NORTE,NULL,NULL,NULL,NULL,NULL,NULL
4015,439,BR_356,IGUACU,NULL,NULL,NULL,-5.602,-35.883,MM,4,4,NULL,NULL,NULL,NULL,NULL,NULL,BR,NULL,RIO GRANDE NORTE,NULL,NULL,NULL,NULL,NULL,NULL
4015,440,BR_357,POCO BRANCO,NULL,NULL,NULL,-5.622,-35.662,MM,3,3,NULL,NULL,NULL,NULL,NULL,NULL,BR,NULL,RIO GRANDE NORTE,NULL,NULL,NULL,NULL,NULL,NULL
4015,441,BR_358,TAIPU,NULL,NULL,NULL,-5.622,-35.598,MM,4,4,NULL,NULL,NULL,NULL,NULL,NULL,BR,NULL,RIO GRANDE NORTE,NULL,NULL,NULL,NULL,NULL,NULL
4015,442,BR_359,JARDIM DE ANGICOS,NULL,NULL,NULL,-5.65,-35.97,MM,3,3,NULL,NULL,NULL,NULL,NULL,NULL,BR,NULL,RIO GRANDE NORTE,NULL,NULL,NULL,NULL,NULL,NULL
4015,443,BR_251,PEDRA PRETA,NULL,NULL,NULL,-5.58,-36.102,MM,2,2,NULL,NULL,NULL,NULL,NULL,NULL,BR,NULL,RIO GRANDE NORTE,NULL,NULL,NULL,NULL,NULL,NULL
4015,444,BR_360,4KM S TAIPU,NULL,NULL,NULL,-5.66,-35.6,MM,2,2,NULL,NULL,NULL,NULL,NULL,NULL,BR,NULL,RIO GRANDE NORTE,NULL,NULL,NULL,NULL,NULL,NULL
4015,445,BR_361,5KM NW PUREZA,NULL,NULL,NULL,-5.45,-35.595,MM,2,2,NULL,NULL,NULL,NULL,NULL,NULL,BR,NULL,RIO GRANDE NORTE,NULL,NULL,NULL,NULL,NULL,NULL
4015,446,BR_362,QUEIMADAS,NULL,NULL,NULL,-5.365,-35.882,MM,2,2,NULL,NULL,NULL,NULL,NULL,NULL,BR,NULL,RIO GRANDE NORTE,NULL,NULL,NULL,NULL,NULL,NULL
4015,447,BR_363,BENTO FERNANDES,NULL,NULL,NULL,-5.69,-35.82,MM,2,2,NULL,NULL,NULL,NULL,NULL,NULL,BR,NULL,RIO GRANDE NORTE,NULL,NULL,NULL,NULL,NULL,NULL
4015,448,BR_364,4KM S BENTO FERNANDES,NULL,NULL,NULL,-5.735,-35.826,MM,2,2,NULL,NULL,NULL,NULL,NULL,NULL,BR,NULL,RIO GRANDE NORTE,NULL,NULL,NULL,NULL,NULL,NULL
4015,449,BR_365,CEARA MIRIM,NULL,NULL,NULL,-5.64,-35.42,MM,1,1,NULL,NULL,NULL,NULL,NULL,NULL,BR,NULL,RIO GRANDE NORTE,NULL,NULL,NULL,NULL,NULL,NULL
4015,450,BR_366,PUREZA,NULL,NULL,NULL,-5.47,-35.56,MM,1,1,NULL,NULL,NULL,NULL,NULL,NULL,BR,NULL,RIO GRANDE NORTE,NULL,NULL,NULL,NULL,NULL,NULL
4015,451,BR_367,11KM SE BENTO FERNANDES,NULL,NULL,NULL,-5.76,-35.75,MM,1,1,NULL,NULL,NULL,NULL,NULL,NULL,BR,NULL,RIO GRANDE NORTE,NULL,NULL,NULL,NULL,NULL,NULL
4016,452,BR_280,PRIMEIRO DE MAIO,NULL,NULL,NULL,-22.85,-51.03,MM,2.5,2.5,NULL,NULL,NULL,NULL,NULL,NULL,BR,NULL,PARANA,NULL,NULL,NULL,NULL,NULL,NULL
4016,453,BR_283,IBIACI,NULL,NULL,NULL,-22.93,-51.02,MM,6,6,NULL,NULL,NULL,NULL,NULL,NULL,BR,NULL,PARANA,NULL,NULL,NULL,NULL,NULL,NULL
4016,454,BR_368,SERTANEJA,NULL,NULL,NULL,-23.04,-50.82,MM,2,2,NULL,NULL,NULL,NULL,NULL,NULL,BR,NULL,PARANA,NULL,NULL,NULL,NULL,NULL,NULL
4016,455,BR_369,RANCHO ALEGRE,NULL,NULL,NULL,-23.1,-50.91,MM,2.5,2.5,NULL,NULL,NULL,NULL,NULL,NULL,BR,NULL,PARANA,NULL,NULL,NULL,NULL,NULL,NULL
4016,456,BR_281,SERTANOPOLIS,NULL,NULL,NULL,-23.06,-51.04,MM,2.5,2.5,NULL,NULL,NULL,NULL,NULL,NULL,BR,NULL,PARANA,NULL,NULL,NULL,NULL,NULL,NULL
4016,457,BR_370,SE PRIMEIRO DE MAIO,NULL,NULL,NULL,-22.88,-50.97,MM,5,5,NULL,NULL,NULL,NULL,NULL,NULL,BR,NULL,PARANA,NULL,NULL,NULL,NULL,NULL,NULL
4016,458,BR_371,NE SERTANOPOLIS,NULL,NULL,NULL,-22.98,-50.99,MM,5,5,NULL,NULL,NULL,NULL,NULL,NULL,BR,NULL,PARANA,NULL,NULL,NULL,NULL,NULL,NULL
4017,459,BR_372,NOVA MUTUM,NULL,NULL,NULL,-13.84,-56.08,MM,3,3,NULL,NULL,NULL,NULL,NULL,NULL,BR,NULL,MATO GROSSO,NULL,NULL,NULL,NULL,NULL,NULL
4017,460,BR_373,CAMPO NOVO DOS PARECIS,NULL,NULL,NULL,-13.68,-57.89,MM,3,3,NULL,NULL,NULL,NULL,NULL,NULL,BR,NULL,MATO GROSSO,NULL,NULL,NULL,NULL,NULL,NULL
4017,461,BR_374,SAO JOSE DO RIO CLARO,NULL,NULL,NULL,-13.45,-56.72,MM,3.5,3.5,NULL,NULL,NULL,NULL,NULL,NULL,BR,NULL,MATO GROSSO,NULL,NULL,NULL,NULL,NULL,NULL
4017,462,BR_375,LUCAS DO RIO VERDE,NULL,NULL,NULL,-13.05,-55.91,MM,4,4,NULL,NULL,NULL,NULL,NULL,NULL,BR,NULL,MATO GROSSO,NULL,NULL,NULL,NULL,NULL,NULL
4017,463,BR_376,NOVA MARINGA,NULL,NULL,NULL,-13.03,-57.07,MM,4,4,NULL,NULL,NULL,NULL,NULL,NULL,BR,NULL,MATO GROSSO,NULL,NULL,NULL,NULL,NULL,NULL
4017,464,BR_377,TAPURAH,NULL,NULL,NULL,-12.77,-56.55,MM,4,4,NULL,NULL,NULL,NULL,NULL,NULL,BR,NULL,MATO GROSSO,NULL,NULL,NULL,NULL,NULL,NULL
4017,465,BR_378,SORRISO,NULL,NULL,NULL,-12.55,-55.71,MM,4,4,NULL,NULL,NULL,NULL,NULL,NULL,BR,NULL,MATO GROSSO,NULL,NULL,NULL,NULL,NULL,NULL
4017,466,BR_379,VERA,NULL,NULL,NULL,-12.31,-55.32,MM,3.5,3.5,NULL,NULL,NULL,NULL,NULL,NULL,BR,NULL,MATO GROSSO,NULL,NULL,NULL,NULL,NULL,NULL
4017,467,BR_380,SANTA CARMEM,NULL,NULL,NULL,-11.91,-55.23,MM,3,3,NULL,NULL,NULL,NULL,NULL,NULL,BR,NULL,MATO GROSSO,NULL,NULL,NULL,NULL,NULL,NULL
4017,468,BR_381,SINOP,NULL,NULL,NULL,-11.86,-55.5,MM,5,5,NULL,NULL,NULL,NULL,NULL,NULL,BR,NULL,MATO GROSSO,NULL,NULL,NULL,NULL,NULL,NULL
4017,469,BR_382,CLAUDIA,NULL,NULL,NULL,-11.52,-54.89,MM,3.5,3.5,NULL,NULL,NULL,NULL,NULL,NULL,BR,NULL,MATO GROSSO,NULL,NULL,NULL,NULL,NULL,NULL
4017,470,BR_383,MARCELANDIA,NULL,NULL,NULL,-11.13,-54.6,MM,3,3,NULL,NULL,NULL,NULL,NULL,NULL,BR,NULL,MATO GROSSO,NULL,NULL,NULL,NULL,NULL,NULL
4017,471,BR_384,COLIDER,NULL,NULL,NULL,-10.81,-55.46,MM,5,5,NULL,NULL,NULL,NULL,NULL,NULL,BR,NULL,MATO GROSSO,NULL,NULL,NULL,NULL,NULL,NULL
4017,472,BR_385,PORTO DOS GAUCHOS,NULL,NULL,NULL,-11.53,-57.41,MM,4,4,NULL,NULL,NULL,NULL,NULL,NULL,BR,NULL,MATO GROSSO,NULL,NULL,NULL,NULL,NULL,NULL
4017,473,BR_386,JUARA,NULL,NULL,NULL,-11.26,-57.52,MM,5,5,NULL,NULL,NULL,NULL,NULL,NULL,BR,NULL,MATO GROSSO,NULL,NULL,NULL,NULL,NULL,NULL
4017,474,BR_387,BRASNORTE,NULL,NULL,NULL,-12.15,-57.98,MM,4,4,NULL,NULL,NULL,NULL,NULL,NULL,BR,NULL,MATO GROSSO,NULL,NULL,NULL,NULL,NULL,NULL
4017,475,BR_388,SW BRASNORTE,NULL,NULL,NULL,-11.33,-58.33,MM,4,4,NULL,NULL,NULL,NULL,NULL,NULL,BR,NULL,MATO GROSSO,NULL,NULL,NULL,NULL,NULL,NULL
4017,476,BR_389,CASTANHEIRA,NULL,NULL,NULL,-11.13,-58.6,MM,3,3,NULL,NULL,NULL,NULL,NULL,NULL,BR,NULL,MATO GROSSO,NULL,NULL,NULL,NULL,NULL,NULL
4017,477,BR_390,JUINA,NULL,NULL,NULL,-11.38,-58.74,MM,3.5,3.5,NULL,NULL,NULL,NULL,NULL,NULL,BR,NULL,MATO GROSSO,NULL,NULL,NULL,NULL,NULL,NULL
4017,478,BR_391,COTRIGUACU,NULL,NULL,NULL,-9.86,-58.41,MM,4,4,NULL,NULL,NULL,NULL,NULL,NULL,BR,NULL,MATO GROSSO,NULL,NULL,NULL,NULL,NULL,NULL
4017,479,BR_392,NOVA MONTE VERDE,NULL,NULL,NULL,-9.98,-57.53,MM,5,5,NULL,NULL,NULL,NULL,NULL,NULL,BR,NULL,MATO GROSSO,NULL,NULL,NULL,NULL,NULL,NULL
4017,480,BR_393,NOVA BANDEIRANTES,NULL,NULL,NULL,-9.81,-57.86,MM,3,3,NULL,NULL,NULL,NULL,NULL,NULL,BR,NULL,MATO GROSSO,NULL,NULL,NULL,NULL,NULL,NULL
4017,481,BR_394,APIACAS,NULL,NULL,NULL,-9.54,-57.45,MM,3,3,NULL,NULL,NULL,NULL,NULL,NULL,BR,NULL,MATO GROSSO,NULL,NULL,NULL,NULL,NULL,NULL
4017,482,BR_395,ALTA FLORESTA,NULL,NULL,NULL,-9.88,-56.09,MM,4,4,NULL,NULL,NULL,NULL,NULL,NULL,BR,NULL,MATO GROSSO,NULL,NULL,NULL,NULL,NULL,NULL
4017,483,BR_396,NOVA GUARITA,NULL,NULL,NULL,-10.32,-55.41,MM,3,3,NULL,NULL,NULL,NULL,NULL,NULL,BR,NULL,MATO GROSSO,NULL,NULL,NULL,NULL,NULL,NULL
4017,484,BR_397,TERRA NOVA DO NORTE,NULL,NULL,NULL,-10.52,-55.23,MM,3,3,NULL,NULL,NULL,NULL,NULL,NULL,BR,NULL,MATO GROSSO,NULL,NULL,NULL,NULL,NULL,NULL
4017,485,BR_398,GUARANTA DO NORTE,NULL,NULL,NULL,-9.79,-54.91,MM,2.5,2.5,NULL,NULL,NULL,NULL,NULL,NULL,BR,NULL,MATO GROSSO,NULL,NULL,NULL,NULL,NULL,NULL
4018,486,BR_399,MONTALVANIA,NULL,NULL,NULL,-14.43,-44.37,MM,4,4,NULL,NULL,NULL,NULL,NULL,NULL,BR,NULL,MINAS GERAIS,NULL,NULL,NULL,NULL,NULL,NULL
4018,487,BR_180,,NULL,NULL,NULL,-14.73,-44.71,MM,4,4,NULL,NULL,NULL,NULL,NULL,NULL,BR,NULL,MINAS GERAIS,NULL,NULL,NULL,NULL,NULL,NULL
4018,488,BR_400,SAO JOAO DAS MISSOES,NULL,NULL,NULL,-14.85,-44.22,MM,3,3,NULL,NULL,NULL,NULL,NULL,NULL,BR,NULL,MINAS GERAIS,NULL,NULL,NULL,NULL,NULL,NULL
4018,489,BR_401,XACRIABA,NULL,NULL,NULL,-14.88,-44.26,MM,3,3,NULL,NULL,NULL,NULL,NULL,NULL,BR,NULL,MINAS GERAIS,NULL,NULL,NULL,NULL,NULL,NULL
4018,490,BR_180,,NULL,NULL,NULL,-14.89,-44.28,MM,3,3,NULL,NULL,NULL,NULL,NULL,NULL,BR,NULL,MINAS GERAIS,NULL,NULL,NULL,NULL,NULL,NULL
4018,491,BR_180,,NULL,NULL,NULL,-14.91,-44.27,MM,5,5,NULL,NULL,NULL,NULL,NULL,NULL,BR,NULL,MINAS GERAIS,NULL,NULL,NULL,NULL,NULL,NULL
4018,492,BR_402,BONITO DE MINAS,NULL,NULL,NULL,-15.33,-44.76,MM,3,3,NULL,NULL,NULL,NULL,NULL,NULL,BR,NULL,MINAS GERAIS,NULL,NULL,NULL,NULL,NULL,NULL
4018,493,BR_403,CONEGO MARINHO,NULL,NULL,NULL,-15.28,-44.43,MM,4,4,NULL,NULL,NULL,NULL,NULL,NULL,BR,NULL,MINAS GERAIS,NULL,NULL,NULL,NULL,NULL,NULL
4018,494,BR_404,JANUARIA,NULL,NULL,NULL,-15.47,-44.35,MM,3,3,NULL,NULL,NULL,NULL,NULL,NULL,BR,NULL,MINAS GERAIS,NULL,NULL,NULL,NULL,NULL,NULL
4018,495,BR_405,ALVORADA(JANUARIA),NULL,NULL,NULL,-15.5,-44.37,MM,3,3,NULL,NULL,NULL,NULL,NULL,NULL,BR,NULL,MINAS GERAIS,NULL,NULL,NULL,NULL,NULL,NULL
4018,496,BR_180,,NULL,NULL,NULL,-15.1,-44.4,MM,5,5,NULL,NULL,NULL,NULL,NULL,NULL,BR,NULL,MINAS GERAIS,NULL,NULL,NULL,NULL,NULL,NULL
4018,497,BR_180,,NULL,NULL,NULL,-15.05,-44.41,MM,5,5,NULL,NULL,NULL,NULL,NULL,NULL,BR,NULL,MINAS GERAIS,NULL,NULL,NULL,NULL,NULL,NULL
4018,498,BR_180,,NULL,NULL,NULL,-15.09,-44.24,MM,4,4,NULL,NULL,NULL,NULL,NULL,NULL,BR,NULL,MINAS GERAIS,NULL,NULL,NULL,NULL,NULL,NULL
4018,499,BR_406,FAZENDA CANADA (ITACARAMBI),NULL,NULL,NULL,-15.01,-44.09,MM,4,4,NULL,NULL,NULL,NULL,NULL,NULL,BR,NULL,MINAS GERAIS,NULL,NULL,NULL,NULL,NULL,NULL
4018,500,BR_407,CARAIBAS(ITACARAMBI),NULL,NULL,NULL,-15.01,-44.35,MM,4,4,NULL,NULL,NULL,NULL,NULL,NULL,BR,NULL,MINAS GERAIS,NULL,NULL,NULL,NULL,NULL,NULL
4018,501,BR_180,,NULL,NULL,NULL,-15.01,-44.31,MM,5,5,NULL,NULL,NULL,NULL,NULL,NULL,BR,NULL,MINAS GERAIS,NULL,NULL,NULL,NULL,NULL,NULL
4018,502,BR_408,VARGEM GRANDE,NULL,NULL,NULL,-15.01,-44.34,MM,5,5,NULL,NULL,NULL,NULL,NULL,NULL,BR,NULL,MINAS GERAIS,NULL,NULL,NULL,NULL,NULL,NULL
4018,503,BR_180,,NULL,NULL,NULL,-15,-44.35,MM,5,5,NULL,NULL,NULL,NULL,NULL,NULL,BR,NULL,MINAS GERAIS,NULL,NULL,NULL,NULL,NULL,NULL
4018,504,BR_180,,NULL,NULL,NULL,-15.03,-44.34,MM,5,5,NULL,NULL,NULL,NULL,NULL,NULL,BR,NULL,MINAS GERAIS,NULL,NULL,NULL,NULL,NULL,NULL
4018,505,BR_180,,NULL,NULL,NULL,-15.03,-44.35,MM,5,5,NULL,NULL,NULL,NULL,NULL,NULL,BR,NULL,MINAS GERAIS,NULL,NULL,NULL,NULL,NULL,NULL
4018,506,BR_180,,NULL,NULL,NULL,-15.03,-44.29,MM,6,6,NULL,NULL,NULL,NULL,NULL,NULL,BR,NULL,MINAS GERAIS,NULL,NULL,NULL,NULL,NULL,NULL
4018,507,BR_180,,NULL,NULL,NULL,-15.06,-44.33,MM,6,6,NULL,NULL,NULL,NULL,NULL,NULL,BR,NULL,MINAS GERAIS,NULL,NULL,NULL,NULL,NULL,NULL
4018,508,BR_180,,NULL,NULL,NULL,-15.06,-44.3,MM,5,5,NULL,NULL,NULL,NULL,NULL,NULL,BR,NULL,MINAS GERAIS,NULL,NULL,NULL,NULL,NULL,NULL
4018,509,BR_180,,NULL,NULL,NULL,-15.05,-44.32,MM,5,5,NULL,NULL,NULL,NULL,NULL,NULL,BR,NULL,MINAS GERAIS,NULL,NULL,NULL,NULL,NULL,NULL
4018,510,BR_409,PARQUE NACIONAL CAVERNAS DO PERUACU,NULL,NULL,NULL,-15.17,-44.21,MM,3,3,NULL,NULL,NULL,NULL,NULL,NULL,BR,NULL,MINAS GERAIS,NULL,NULL,NULL,NULL,NULL,NULL
4018,511,BR_410,FABIAO,NULL,NULL,NULL,-15.17,-44.2,MM,3,3,NULL,NULL,NULL,NULL,NULL,NULL,BR,NULL,MINAS GERAIS,NULL,NULL,NULL,NULL,NULL,NULL
4018,512,BR_411,JATOBA,NULL,NULL,NULL,-15.26,-44.2,MM,3,3,NULL,NULL,NULL,NULL,NULL,NULL,BR,NULL,MINAS GERAIS,NULL,NULL,NULL,NULL,NULL,NULL
4018,513,BR_180,,NULL,NULL,NULL,-15.07,-44.15,MM,5,5,NULL,NULL,NULL,NULL,NULL,NULL,BR,NULL,MINAS GERAIS,NULL,NULL,NULL,NULL,NULL,NULL
4018,514,BR_180,,NULL,NULL,NULL,-15.07,-44.13,MM,3.5,3.5,NULL,NULL,NULL,NULL,NULL,NULL,BR,NULL,MINAS GERAIS,NULL,NULL,NULL,NULL,NULL,NULL
4018,515,BR_412,MANGA,NULL,NULL,NULL,-14.87,-44.08,MM,3.5,3.5,NULL,NULL,NULL,NULL,NULL,NULL,BR,NULL,MINAS GERAIS,NULL,NULL,NULL,NULL,NULL,NULL
4018,516,BR_413,RANCHARIA,NULL,NULL,NULL,-14.98,-44.05,MM,3,3,NULL,NULL,NULL,NULL,NULL,NULL,BR,NULL,MINAS GERAIS,NULL,NULL,NULL,NULL,NULL,NULL
4018,517,BR_414,RIO SAO FRANCISCO,NULL,NULL,NULL,-14.76,-43.93,MM,3,3,NULL,NULL,NULL,NULL,NULL,NULL,BR,NULL,MINAS GERAIS,NULL,NULL,NULL,NULL,NULL,NULL
4018,518,BR_415,SE ITACARAMBI,NULL,NULL,NULL,-15.1,-44.09,MM,4,4,NULL,NULL,NULL,NULL,NULL,NULL,BR,NULL,MINAS GERAIS,NULL,NULL,NULL,NULL,NULL,NULL
4018,519,BR_416,JUVENILIA,NULL,NULL,NULL,-14.27,-44.16,MM,3,3,NULL,NULL,NULL,NULL,NULL,NULL,BR,NULL,MINAS GERAIS,NULL,NULL,NULL,NULL,NULL,NULL
4018,520,BR_417,JAIBA,NULL,NULL,NULL,-15.34,-43.66,MM,3,3,NULL,NULL,NULL,NULL,NULL,NULL,BR,NULL,MINAS GERAIS,NULL,NULL,NULL,NULL,NULL,NULL
4019,521,BR_142,RONDONOPOLIS,NULL,NULL,NULL,-16.47,-54.63,MM,2,2,NULL,NULL,NULL,NULL,NULL,NULL,BR,NULL,MATO GROSSO,NULL,NULL,NULL,NULL,NULL,NULL
4019,522,BR_144,CUIABA,NULL,NULL,NULL,-15.59,-56.09,MM,2,2,NULL,NULL,NULL,NULL,NULL,NULL,BR,NULL,MATO GROSSO,NULL,NULL,NULL,NULL,NULL,NULL
4019,523,BR_418,GOIANIA,NULL,NULL,NULL,-16.72,-49.26,MM,2,2,NULL,NULL,NULL,NULL,NULL,NULL,BR,NULL,GOIAIS,NULL,NULL,NULL,NULL,NULL,NULL
4019,524,BR_419,AQUIDAUANA,NULL,NULL,NULL,-20.47,-55.78,MM,3,3,NULL,NULL,NULL,NULL,NULL,NULL,BR,NULL,MATO GROSSO DO SUL,NULL,NULL,NULL,NULL,NULL,NULL
4019,525,BR_420,CAMPO GRANDE,NULL,NULL,NULL,-20.45,-54.63,MM,3,3,NULL,NULL,NULL,NULL,NULL,NULL,BR,NULL,MATO GROSSO DO SUL,NULL,NULL,NULL,NULL,NULL,NULL
4019,526,BR_421,CORUMBA,NULL,NULL,NULL,-19,-57.65,MM,3,3,NULL,NULL,NULL,NULL,NULL,NULL,BR,NULL,MATO GROSSO DO SUL,NULL,NULL,NULL,NULL,NULL,NULL
4019,527,BR_422,SONORA,NULL,NULL,NULL,-17.57,-54.75,MM,4,4,NULL,NULL,NULL,NULL,NULL,NULL,BR,NULL,MATO GROSSO DO SUL,NULL,NULL,NULL,NULL,NULL,NULL
4019,528,BR_156,COXIM,NULL,NULL,NULL,-18.5,-54.75,MM,4,4,NULL,NULL,NULL,NULL,NULL,NULL,BR,NULL,MATO GROSSO DO SUL,NULL,NULL,NULL,NULL,NULL,NULL
4019,529,BR_423,MIRANDA,NULL,NULL,NULL,-20.24,-56.37,MM,4,4,NULL,NULL,NULL,NULL,NULL,NULL,BR,NULL,MATO GROSSO DO SUL,NULL,NULL,NULL,NULL,NULL,NULL
4019,530,BR_424,RIO VERDE (MATO GROSSO),NULL,NULL,NULL,-18.92,-54.88,MM,4,4,NULL,NULL,NULL,NULL,NULL,NULL,BR,NULL,MATO GROSSO DO SUL,NULL,NULL,NULL,NULL,NULL,NULL
4019,531,BR_425,FAZENDA RANCHARIA,NULL,NULL,NULL,-18.59,-55.83,MM,4,4,NULL,NULL,NULL,NULL,NULL,NULL,BR,NULL,MATO GROSSO DO SUL,NULL,NULL,NULL,NULL,NULL,NULL
4019,532,BR_426,FAZENDA GUEDA,NULL,NULL,NULL,-18.66,-55.77,MM,4,4,NULL,NULL,NULL,NULL,NULL,NULL,BR,NULL,MATO GROSSO DO SUL,NULL,NULL,NULL,NULL,NULL,NULL
4019,533,BR_427,CAMPO ZELIA,NULL,NULL,NULL,-18.63,-55.69,MM,4,4,NULL,NULL,NULL,NULL,NULL,NULL,BR,NULL,MATO GROSSO DO SUL,NULL,NULL,NULL,NULL,NULL,NULL
4019,534,BR_428,GOIABAL,NULL,NULL,NULL,-18.62,-55.64,MM,4.5,4.5,NULL,NULL,NULL,NULL,NULL,NULL,BR,NULL,MATO GROSSO DO SUL,NULL,NULL,NULL,NULL,NULL,NULL
4019,535,BR_429,FAZENDA SAO PAULO,NULL,NULL,NULL,-18.55,-55.54,MM,4.5,4.5,NULL,NULL,NULL,NULL,NULL,NULL,BR,NULL,MATO GROSSO DO SUL,NULL,NULL,NULL,NULL,NULL,NULL
4019,536,BR_430,FAZENDA SAO ANTONIO,NULL,NULL,NULL,-18.5,-55.71,MM,5,5,NULL,NULL,NULL,NULL,NULL,NULL,BR,NULL,MATO GROSSO DO SUL,NULL,NULL,NULL,NULL,NULL,NULL
4019,537,BR_431,FAZENDA PROMISSAO,NULL,NULL,NULL,-18.45,-55.76,MM,5,5,NULL,NULL,NULL,NULL,NULL,NULL,BR,NULL,MATO GROSSO DO SUL,NULL,NULL,NULL,NULL,NULL,NULL
4019,538,BR_432,DOURADOS,NULL,NULL,NULL,-22.22,-54.8,MM,-1,-1,NULL,NULL,NULL,NULL,NULL,NULL,BR,NULL,MATO GROSSO DO SUL,NULL,NULL,NULL,NULL,NULL,NULL
4019,539,BR_146,CACERES,NULL,NULL,NULL,-16.07,-57.67,MM,-1,-1,NULL,NULL,NULL,NULL,NULL,NULL,BR,NULL,MATO GROSSO,NULL,NULL,NULL,NULL,NULL,NULL
4019,540,BR_433,PRIMAVERA LESTE,NULL,NULL,NULL,-15.52,-54.34,MM,-1,-1,NULL,NULL,NULL,NULL,NULL,NULL,BR,NULL,MATO GROSSO,NULL,NULL,NULL,NULL,NULL,NULL
4019,541,BR_434,PORTO MURTINHO,NULL,NULL,NULL,-21.69,-57.88,MM,-1,-1,NULL,NULL,NULL,NULL,NULL,NULL,BR,NULL,MATO GROSSO DO SUL,NULL,NULL,NULL,NULL,NULL,NULL
4019,542,BR_435,TRES ALGOAS,NULL,NULL,NULL,-20.75,-51.67,MM,-1,-1,NULL,NULL,NULL,NULL,NULL,NULL,BR,NULL,MATO GROSSO DO SUL,NULL,NULL,NULL,NULL,NULL,NULL
4019,543,BR_436,JATAI,NULL,NULL,NULL,-17.88,-51.71,MM,-1,-1,NULL,NULL,NULL,NULL,NULL,NULL,BR,NULL,GOIAIS,NULL,NULL,NULL,NULL,NULL,NULL
4019,544,BR_437,CHAPADAO SUL,NULL,NULL,NULL,-18.79,-52.62,MM,-1,-1,NULL,NULL,NULL,NULL,NULL,NULL,BR,NULL,MATO GROSSO DO SUL,NULL,NULL,NULL,NULL,NULL,NULL
4020,545,BR_180,,NULL,NULL,NULL,-5.5285105257,-45.87890625,MM,3,3,NULL,NULL,NULL,NULL,NULL,NULL,BR,NULL,,NULL,NULL,NULL,NULL,NULL,NULL
4020,546,BR_180,,NULL,NULL,NULL,-3.664782,-45.3826868,MM,3,3,NULL,NULL,NULL,NULL,NULL,NULL,BR,NULL,,NULL,NULL,NULL,NULL,NULL,NULL
4020,547,BR_180,,NULL,NULL,NULL,-2.5222439,-45.0788249,MM,3,3,NULL,NULL,NULL,NULL,NULL,NULL,BR,NULL,,NULL,NULL,NULL,NULL,NULL,NULL
4020,548,BR_180,,NULL,NULL,NULL,-2.1088986592,-44.912109375,MM,1,1,NULL,NULL,NULL,NULL,NULL,NULL,BR,NULL,,NULL,NULL,NULL,NULL,NULL,NULL
4020,549,BR_180,,NULL,NULL,NULL,-4.1901589588,-44.7873978876,MM,1,1,NULL,NULL,NULL,NULL,NULL,NULL,BR,NULL,,NULL,NULL,NULL,NULL,NULL,NULL
4020,550,BR_180,,NULL,NULL,NULL,-2.9869273933,-44.560546875,MM,4,4,NULL,NULL,NULL,NULL,NULL,NULL,BR,NULL,,NULL,NULL,NULL,NULL,NULL,NULL
4020,551,BR_180,,NULL,NULL,NULL,-3.5134210456,-44.560546875,MM,5,5,NULL,NULL,NULL,NULL,NULL,NULL,BR,NULL,,NULL,NULL,NULL,NULL,NULL,NULL
4020,552,BR_180,,NULL,NULL,NULL,-2.8113711933,-44.47265625,MM,5,5,NULL,NULL,NULL,NULL,NULL,NULL,BR,NULL,,NULL,NULL,NULL,NULL,NULL,NULL
4020,553,BR_180,,NULL,NULL,NULL,-3.3973568,-44.3560723,MM,4,4,NULL,NULL,NULL,NULL,NULL,NULL,BR,NULL,,NULL,NULL,NULL,NULL,NULL,NULL
4020,554,BR_180,,NULL,NULL,NULL,-3.3975889519,-44.3432235718,MM,3,3,NULL,NULL,NULL,NULL,NULL,NULL,BR,NULL,,NULL,NULL,NULL,NULL,NULL,NULL
4020,555,BR_180,,NULL,NULL,NULL,-2.4997388659,-44.3204308301,MM,5,5,NULL,NULL,NULL,NULL,NULL,NULL,BR,NULL,,NULL,NULL,NULL,NULL,NULL,NULL
4020,556,BR_180,,NULL,NULL,NULL,-2.5097017916,-44.3035697937,MM,4,4,NULL,NULL,NULL,NULL,NULL,NULL,BR,NULL,,NULL,NULL,NULL,NULL,NULL,NULL
4020,557,BR_180,,NULL,NULL,NULL,-2.4901081445,-44.3000507355,MM,1,1,NULL,NULL,NULL,NULL,NULL,NULL,BR,NULL,,NULL,NULL,NULL,NULL,NULL,NULL
4020,558,BR_180,,NULL,NULL,NULL,-2.5041710106,-44.2988491058,MM,3,3,NULL,NULL,NULL,NULL,NULL,NULL,BR,NULL,,NULL,NULL,NULL,NULL,NULL,NULL
4020,559,BR_180,,NULL,NULL,NULL,-2.460181181,-44.296875,MM,5,5,NULL,NULL,NULL,NULL,NULL,NULL,BR,NULL,,NULL,NULL,NULL,NULL,NULL,NULL
4020,560,BR_180,,NULL,NULL,NULL,-2.7235830834,-44.296875,MM,4,4,NULL,NULL,NULL,NULL,NULL,NULL,BR,NULL,,NULL,NULL,NULL,NULL,NULL,NULL
4020,561,BR_180,,NULL,NULL,NULL,-2.5319223,-44.2933275,MM,4,4,NULL,NULL,NULL,NULL,NULL,NULL,BR,NULL,,NULL,NULL,NULL,NULL,NULL,NULL
4020,562,BR_180,,NULL,NULL,NULL,-2.5012971,-44.2876663744,MM,5,5,NULL,NULL,NULL,NULL,NULL,NULL,BR,NULL,,NULL,NULL,NULL,NULL,NULL,NULL
4020,563,BR_180,,NULL,NULL,NULL,-2.5031682,-44.2874283,MM,4,4,NULL,NULL,NULL,NULL,NULL,NULL,BR,NULL,,NULL,NULL,NULL,NULL,NULL,NULL
4020,564,BR_180,,NULL,NULL,NULL,-2.4967751623,-44.2873424292,MM,5,5,NULL,NULL,NULL,NULL,NULL,NULL,BR,NULL,,NULL,NULL,NULL,NULL,NULL,NULL
4020,565,BR_180,,NULL,NULL,NULL,-2.4937096246,-44.2851161957,MM,4,4,NULL,NULL,NULL,NULL,NULL,NULL,BR,NULL,,NULL,NULL,NULL,NULL,NULL,NULL
4020,566,BR_180,,NULL,NULL,NULL,-2.5219208759,-44.2831420898,MM,5,5,NULL,NULL,NULL,NULL,NULL,NULL,BR,NULL,,NULL,NULL,NULL,NULL,NULL,NULL
4020,567,BR_180,,NULL,NULL,NULL,-2.5010840529,-44.2767047882,MM,4,4,NULL,NULL,NULL,NULL,NULL,NULL,BR,NULL,,NULL,NULL,NULL,NULL,NULL,NULL
4020,568,BR_180,,NULL,NULL,NULL,-2.4937256057,-44.2723272329,MM,3,3,NULL,NULL,NULL,NULL,NULL,NULL,BR,NULL,,NULL,NULL,NULL,NULL,NULL,NULL
4020,569,BR_180,,NULL,NULL,NULL,-2.5356404127,-44.267950058,MM,4,4,NULL,NULL,NULL,NULL,NULL,NULL,BR,NULL,,NULL,NULL,NULL,NULL,NULL,NULL
4020,570,BR_180,,NULL,NULL,NULL,-2.51909,-44.267002,MM,3,3,NULL,NULL,NULL,NULL,NULL,NULL,BR,NULL,,NULL,NULL,NULL,NULL,NULL,NULL
4020,571,BR_180,,NULL,NULL,NULL,-2.5134747141,-44.2655897141,MM,3,3,NULL,NULL,NULL,NULL,NULL,NULL,BR,NULL,,NULL,NULL,NULL,NULL,NULL,NULL
4020,572,BR_180,,NULL,NULL,NULL,-2.5104306525,-44.2652463913,MM,3,3,NULL,NULL,NULL,NULL,NULL,NULL,BR,NULL,,NULL,NULL,NULL,NULL,NULL,NULL
4020,573,BR_180,,NULL,NULL,NULL,-2.5103720233,-44.2650156545,MM,5,5,NULL,NULL,NULL,NULL,NULL,NULL,BR,NULL,,NULL,NULL,NULL,NULL,NULL,NULL
4020,574,BR_180,,NULL,NULL,NULL,-2.5233357098,-44.2648816109,MM,4,4,NULL,NULL,NULL,NULL,NULL,NULL,BR,NULL,,NULL,NULL,NULL,NULL,NULL,NULL
4020,575,BR_180,,NULL,NULL,NULL,-2.5243917,-44.2637074,MM,4,4,NULL,NULL,NULL,NULL,NULL,NULL,BR,NULL,,NULL,NULL,NULL,NULL,NULL,NULL
4020,576,BR_180,,NULL,NULL,NULL,-2.5084363,-44.2621088,MM,1,1,NULL,NULL,NULL,NULL,NULL,NULL,BR,NULL,,NULL,NULL,NULL,NULL,NULL,NULL
4020,577,BR_180,,NULL,NULL,NULL,-2.5148109,-44.2611121,MM,5,5,NULL,NULL,NULL,NULL,NULL,NULL,BR,NULL,,NULL,NULL,NULL,NULL,NULL,NULL
4020,578,BR_180,,NULL,NULL,NULL,-2.5415569181,-44.2596244812,MM,4,4,NULL,NULL,NULL,NULL,NULL,NULL,BR,NULL,,NULL,NULL,NULL,NULL,NULL,NULL
4020,579,BR_180,,NULL,NULL,NULL,-2.6357885742,-44.2529296875,MM,1,1,NULL,NULL,NULL,NULL,NULL,NULL,BR,NULL,,NULL,NULL,NULL,NULL,NULL,NULL
4020,580,BR_180,,NULL,NULL,NULL,-2.5048141259,-44.2500114441,MM,3,3,NULL,NULL,NULL,NULL,NULL,NULL,BR,NULL,,NULL,NULL,NULL,NULL,NULL,NULL
4020,581,BR_180,,NULL,NULL,NULL,-2.9413747752,-44.2490029335,MM,1,1,NULL,NULL,NULL,NULL,NULL,NULL,BR,NULL,,NULL,NULL,NULL,NULL,NULL,NULL
4020,582,BR_180,,NULL,NULL,NULL,-2.5316103138,-44.2489600182,MM,4,4,NULL,NULL,NULL,NULL,NULL,NULL,BR,NULL,,NULL,NULL,NULL,NULL,NULL,NULL
4020,583,BR_180,,NULL,NULL,NULL,-2.490768,-44.244801,MM,3,3,NULL,NULL,NULL,NULL,NULL,NULL,BR,NULL,,NULL,NULL,NULL,NULL,NULL,NULL
4020,584,BR_180,,NULL,NULL,NULL,-2.4985115826,-44.2403554916,MM,3,3,NULL,NULL,NULL,NULL,NULL,NULL,BR,NULL,,NULL,NULL,NULL,NULL,NULL,NULL
4020,585,BR_180,,NULL,NULL,NULL,-2.5051142462,-44.233982563,MM,4,4,NULL,NULL,NULL,NULL,NULL,NULL,BR,NULL,,NULL,NULL,NULL,NULL,NULL,NULL
4020,586,BR_180,,NULL,NULL,NULL,-2.5599183333,-44.2319766667,MM,1,1,NULL,NULL,NULL,NULL,NULL,NULL,BR,NULL,,NULL,NULL,NULL,NULL,NULL,NULL
4020,587,BR_180,,NULL,NULL,NULL,-2.5140320767,-44.2276954651,MM,4,4,NULL,NULL,NULL,NULL,NULL,NULL,BR,NULL,,NULL,NULL,NULL,NULL,NULL,NULL
4020,588,BR_180,,NULL,NULL,NULL,-2.5048586,-44.2154293,MM,1,1,NULL,NULL,NULL,NULL,NULL,NULL,BR,NULL,,NULL,NULL,NULL,NULL,NULL,NULL
4020,589,BR_180,,NULL,NULL,NULL,-2.5508603536,-44.2114305496,MM,3,3,NULL,NULL,NULL,NULL,NULL,NULL,BR,NULL,,NULL,NULL,NULL,NULL,NULL,NULL
4020,590,BR_180,,NULL,NULL,NULL,-2.4745444928,-44.1885137558,MM,4,4,NULL,NULL,NULL,NULL,NULL,NULL,BR,NULL,,NULL,NULL,NULL,NULL,NULL,NULL
4020,591,BR_180,,NULL,NULL,NULL,-2.4711573378,-44.1870117188,MM,3,3,NULL,NULL,NULL,NULL,NULL,NULL,BR,NULL,,NULL,NULL,NULL,NULL,NULL,NULL
4020,592,BR_180,,NULL,NULL,NULL,-2.527175746,-44.1681807367,MM,4,4,NULL,NULL,NULL,NULL,NULL,NULL,BR,NULL,,NULL,NULL,NULL,NULL,NULL,NULL
4020,593,BR_180,,NULL,NULL,NULL,-2.6357885742,-44.12109375,MM,1,1,NULL,NULL,NULL,NULL,NULL,NULL,BR,NULL,,NULL,NULL,NULL,NULL,NULL,NULL
4020,594,BR_180,,NULL,NULL,NULL,-3.2502085617,-44.033203125,MM,4,4,NULL,NULL,NULL,NULL,NULL,NULL,BR,NULL,,NULL,NULL,NULL,NULL,NULL,NULL
4020,595,BR_180,,NULL,NULL,NULL,-3.4065165,-44.0270507,MM,4,4,NULL,NULL,NULL,NULL,NULL,NULL,BR,NULL,,NULL,NULL,NULL,NULL,NULL,NULL
4020,596,BR_180,,NULL,NULL,NULL,-2.7647345692,-44.0194702148,MM,5,5,NULL,NULL,NULL,NULL,NULL,NULL,BR,NULL,,NULL,NULL,NULL,NULL,NULL,NULL
4020,597,BR_180,,NULL,NULL,NULL,-4.4612987555,-43.8874089718,MM,5,5,NULL,NULL,NULL,NULL,NULL,NULL,BR,NULL,,NULL,NULL,NULL,NULL,NULL,NULL
4020,598,BR_180,,NULL,NULL,NULL,-3.2036232,-43.3929105,MM,4,4,NULL,NULL,NULL,NULL,NULL,NULL,BR,NULL,,NULL,NULL,NULL,NULL,NULL,NULL
4020,599,BR_180,,NULL,NULL,NULL,-4.8542591868,-43.3630371094,MM,3,3,NULL,NULL,NULL,NULL,NULL,NULL,BR,NULL,,NULL,NULL,NULL,NULL,NULL,NULL
4020,600,BR_180,,NULL,NULL,NULL,-3.7416802,-43.3548005,MM,5,5,NULL,NULL,NULL,NULL,NULL,NULL,BR,NULL,,NULL,NULL,NULL,NULL,NULL,NULL
4020,601,BR_180,,NULL,NULL,NULL,-4.1725493096,-42.8804326057,MM,5,5,NULL,NULL,NULL,NULL,NULL,NULL,BR,NULL,,NULL,NULL,NULL,NULL,NULL,NULL
4020,602,BR_180,,NULL,NULL,NULL,-4.5897717099,-42.8597259521,MM,5,5,NULL,NULL,NULL,NULL,NULL,NULL,BR,NULL,,NULL,NULL,NULL,NULL,NULL,NULL
4020,603,BR_180,,NULL,NULL,NULL,-5.1069609,-42.8488217,MM,1,1,NULL,NULL,NULL,NULL,NULL,NULL,BR,NULL,,NULL,NULL,NULL,NULL,NULL,NULL
4020,604,BR_180,,NULL,NULL,NULL,-5.0865285778,-42.8204240349,MM,3,3,NULL,NULL,NULL,NULL,NULL,NULL,BR,NULL,,NULL,NULL,NULL,NULL,NULL,NULL
4020,605,BR_180,,NULL,NULL,NULL,-5.0896402,-42.8095879,MM,4,4,NULL,NULL,NULL,NULL,NULL,NULL,BR,NULL,,NULL,NULL,NULL,NULL,NULL,NULL
4020,606,BR_180,,NULL,NULL,NULL,-5.0896402,-42.8095879,MM,4,4,NULL,NULL,NULL,NULL,NULL,NULL,BR,NULL,,NULL,NULL,NULL,NULL,NULL,NULL
4020,607,BR_180,,NULL,NULL,NULL,-5.0896402,-42.8095879,MM,5,5,NULL,NULL,NULL,NULL,NULL,NULL,BR,NULL,,NULL,NULL,NULL,NULL,NULL,NULL
4020,608,BR_180,,NULL,NULL,NULL,-5.1062043328,-42.8089141846,MM,5,5,NULL,NULL,NULL,NULL,NULL,NULL,BR,NULL,,NULL,NULL,NULL,NULL,NULL,NULL
4020,609,BR_180,,NULL,NULL,NULL,-5.0863800529,-42.8046853101,MM,3,3,NULL,NULL,NULL,NULL,NULL,NULL,BR,NULL,,NULL,NULL,NULL,NULL,NULL,NULL
4020,610,BR_180,,NULL,NULL,NULL,-5.134714634,-42.802734375,MM,3,3,NULL,NULL,NULL,NULL,NULL,NULL,BR,NULL,,NULL,NULL,NULL,NULL,NULL,NULL
4020,611,BR_180,,NULL,NULL,NULL,-5.6159858192,-42.802734375,MM,4,4,NULL,NULL,NULL,NULL,NULL,NULL,BR,NULL,,NULL,NULL,NULL,NULL,NULL,NULL
4020,612,BR_180,,NULL,NULL,NULL,-5.0593968198,-42.7990865707,MM,3,3,NULL,NULL,NULL,NULL,NULL,NULL,BR,NULL,,NULL,NULL,NULL,NULL,NULL,NULL
4020,613,BR_180,,NULL,NULL,NULL,-5.0549296239,-42.7985930443,MM,3,3,NULL,NULL,NULL,NULL,NULL,NULL,BR,NULL,,NULL,NULL,NULL,NULL,NULL,NULL
4020,614,BR_180,,NULL,NULL,NULL,-5.1217205914,-42.7965545654,MM,3,3,NULL,NULL,NULL,NULL,NULL,NULL,BR,NULL,,NULL,NULL,NULL,NULL,NULL,NULL
4020,615,BR_180,,NULL,NULL,NULL,-5.1394804747,-42.7925848961,MM,3,3,NULL,NULL,NULL,NULL,NULL,NULL,BR,NULL,,NULL,NULL,NULL,NULL,NULL,NULL
4020,616,BR_180,,NULL,NULL,NULL,-5.1292434904,-42.7917480469,MM,4,4,NULL,NULL,NULL,NULL,NULL,NULL,BR,NULL,,NULL,NULL,NULL,NULL,NULL,NULL
4020,617,BR_180,,NULL,NULL,NULL,-5.1510342211,-42.7896032426,MM,5,5,NULL,NULL,NULL,NULL,NULL,NULL,BR,NULL,,NULL,NULL,NULL,NULL,NULL,NULL
4020,618,BR_180,,NULL,NULL,NULL,-5.0916965,-42.7886179,MM,3,3,NULL,NULL,NULL,NULL,NULL,NULL,BR,NULL,,NULL,NULL,NULL,NULL,NULL,NULL
4020,619,BR_180,,NULL,NULL,NULL,-5.0687785995,-42.7864444396,MM,5,5,NULL,NULL,NULL,NULL,NULL,NULL,BR,NULL,,NULL,NULL,NULL,NULL,NULL,NULL
4020,620,BR_180,,NULL,NULL,NULL,-5.0647403149,-42.7781009674,MM,1,1,NULL,NULL,NULL,NULL,NULL,NULL,BR,NULL,,NULL,NULL,NULL,NULL,NULL,NULL
4020,621,BR_180,,NULL,NULL,NULL,-5.0644838282,-42.775375843,MM,4,4,NULL,NULL,NULL,NULL,NULL,NULL,BR,NULL,,NULL,NULL,NULL,NULL,NULL,NULL
4020,622,BR_180,,NULL,NULL,NULL,-5.0832753,-42.7722589,MM,1,1,NULL,NULL,NULL,NULL,NULL,NULL,BR,NULL,,NULL,NULL,NULL,NULL,NULL,NULL
4020,623,BR_180,,NULL,NULL,NULL,-5.0446853,-42.7662325,MM,4,4,NULL,NULL,NULL,NULL,NULL,NULL,BR,NULL,,NULL,NULL,NULL,NULL,NULL,NULL
4020,624,BR_180,,NULL,NULL,NULL,-5.0446853,-42.7662325,MM,6,6,NULL,NULL,NULL,NULL,NULL,NULL,BR,NULL,,NULL,NULL,NULL,NULL,NULL,NULL
4020,625,BR_180,,NULL,NULL,NULL,-5.1020059437,-42.7610593704,MM,5,5,NULL,NULL,NULL,NULL,NULL,NULL,BR,NULL,,NULL,NULL,NULL,NULL,NULL,NULL
4020,626,BR_180,,NULL,NULL,NULL,-5.0678181481,-42.7531242371,MM,5,5,NULL,NULL,NULL,NULL,NULL,NULL,BR,NULL,,NULL,NULL,NULL,NULL,NULL,NULL
4020,627,BR_180,,NULL,NULL,NULL,-5.1350565789,-42.7450561523,MM,1,1,NULL,NULL,NULL,NULL,NULL,NULL,BR,NULL,,NULL,NULL,NULL,NULL,NULL,NULL
4020,628,BR_180,,NULL,NULL,NULL,-5.0721638489,-42.7437733361,MM,4,4,NULL,NULL,NULL,NULL,NULL,NULL,BR,NULL,,NULL,NULL,NULL,NULL,NULL,NULL
4020,629,BR_180,,NULL,NULL,NULL,-5.053925035,-42.7365589142,MM,3,3,NULL,NULL,NULL,NULL,NULL,NULL,BR,NULL,,NULL,NULL,NULL,NULL,NULL,NULL
4020,630,BR_180,,NULL,NULL,NULL,-4.2446452681,-42.2921276093,MM,3,3,NULL,NULL,NULL,NULL,NULL,NULL,BR,NULL,,NULL,NULL,NULL,NULL,NULL,NULL
4020,631,BR_180,,NULL,NULL,NULL,-4.0222999,-42.0786799,MM,3,3,NULL,NULL,NULL,NULL,NULL,NULL,BR,NULL,,NULL,NULL,NULL,NULL,NULL,NULL
4020,632,BR_180,,NULL,NULL,NULL,-6.3556565117,-38.5804706812,MM,1,1,NULL,NULL,NULL,NULL,NULL,NULL,BR,NULL,,NULL,NULL,NULL,NULL,NULL,NULL
